2022-11-01 09:12:53,851 - basicLogger - INFO - Periodic processing has started
2022-11-01 09:12:58,844 - basicLogger - INFO - Periodic processing has started
2022-11-01 09:13:03,848 - basicLogger - INFO - Periodic processing has started
2022-11-01 09:13:08,852 - basicLogger - INFO - Periodic processing has started
2022-11-01 09:13:13,840 - basicLogger - INFO - Periodic processing has started
2022-11-01 09:13:18,842 - basicLogger - INFO - Periodic processing has started
2022-11-01 09:13:23,852 - basicLogger - INFO - Periodic processing has started
2022-11-01 09:13:28,852 - basicLogger - INFO - Periodic processing has started
2022-11-01 09:13:33,854 - basicLogger - INFO - Periodic processing has started
2022-11-01 09:13:38,848 - basicLogger - INFO - Periodic processing has started
2022-11-01 09:13:43,851 - basicLogger - INFO - Periodic processing has started
2022-11-01 09:13:48,852 - basicLogger - INFO - Periodic processing has started
2022-11-01 09:13:53,854 - basicLogger - INFO - Periodic processing has started
2022-11-01 09:13:58,851 - basicLogger - INFO - Periodic processing has started
2022-11-01 09:14:03,855 - basicLogger - INFO - Periodic processing has started
2022-11-01 09:14:08,855 - basicLogger - INFO - Periodic processing has started
2022-11-01 09:14:13,850 - basicLogger - INFO - Periodic processing has started
2022-11-01 09:14:18,853 - basicLogger - INFO - Periodic processing has started
2022-11-01 09:14:23,843 - basicLogger - INFO - Periodic processing has started
2022-11-01 09:14:28,843 - basicLogger - INFO - Periodic processing has started
2022-11-01 09:14:33,846 - basicLogger - INFO - Periodic processing has started
2022-11-01 09:14:38,846 - basicLogger - INFO - Periodic processing has started
2022-11-01 09:14:43,849 - basicLogger - INFO - Periodic processing has started
2022-11-01 09:14:48,847 - basicLogger - INFO - Periodic processing has started
2022-11-01 09:14:53,846 - basicLogger - INFO - Periodic processing has started
2022-11-01 09:14:58,849 - basicLogger - INFO - Periodic processing has started
2022-11-01 09:15:03,841 - basicLogger - INFO - Periodic processing has started
2022-11-01 09:15:08,853 - basicLogger - INFO - Periodic processing has started
2022-11-01 09:15:13,847 - basicLogger - INFO - Periodic processing has started
2022-11-01 09:15:18,847 - basicLogger - INFO - Periodic processing has started
2022-11-01 09:15:23,845 - basicLogger - INFO - Periodic processing has started
2022-11-01 09:15:28,847 - basicLogger - INFO - Periodic processing has started
2022-11-01 09:15:33,844 - basicLogger - INFO - Periodic processing has started
2022-11-01 09:15:38,854 - basicLogger - INFO - Periodic processing has started
2022-11-01 09:15:43,845 - basicLogger - INFO - Periodic processing has started
2022-11-01 09:15:48,838 - basicLogger - INFO - Periodic processing has started
2022-11-01 09:15:53,860 - basicLogger - INFO - Periodic processing has started
2022-11-01 09:15:58,851 - basicLogger - INFO - Periodic processing has started
2022-11-01 09:16:03,854 - basicLogger - INFO - Periodic processing has started
2022-11-01 09:16:08,853 - basicLogger - INFO - Periodic processing has started
2022-11-01 09:16:13,841 - basicLogger - INFO - Periodic processing has started
2022-11-01 09:16:18,840 - basicLogger - INFO - Periodic processing has started
2022-11-01 09:16:23,853 - basicLogger - INFO - Periodic processing has started
2022-11-01 09:16:28,843 - basicLogger - INFO - Periodic processing has started
2022-11-01 09:16:33,851 - basicLogger - INFO - Periodic processing has started
2022-11-01 09:16:38,853 - basicLogger - INFO - Periodic processing has started
2022-11-01 09:16:43,848 - basicLogger - INFO - Periodic processing has started
2022-11-01 09:16:48,839 - basicLogger - INFO - Periodic processing has started
2022-11-01 09:16:53,847 - basicLogger - INFO - Periodic processing has started
2022-11-01 09:16:58,855 - basicLogger - INFO - Periodic processing has started
2022-11-01 09:17:03,842 - basicLogger - INFO - Periodic processing has started
2022-11-01 09:17:08,840 - basicLogger - INFO - Periodic processing has started
2022-11-01 09:17:13,853 - basicLogger - INFO - Periodic processing has started
2022-11-01 09:17:18,844 - basicLogger - INFO - Periodic processing has started
2022-11-01 09:17:23,850 - basicLogger - INFO - Periodic processing has started
2022-11-01 09:17:28,847 - basicLogger - INFO - Periodic processing has started
2022-11-01 09:17:33,851 - basicLogger - INFO - Periodic processing has started
2022-11-01 09:17:36,532 - basicLogger - INFO - Number of set grocery events received: 0
2022-11-01 09:17:39,193 - basicLogger - INFO - Number of manual grocery events received: 0
2022-11-01 09:17:39,193 - basicLogger - DEBUG - Number of set grocery orders: 0, Max set grocery orders: 200Number of manual grocery orders: 0, Max manual grocery orders200
2022-11-01 09:17:39,203 - basicLogger - INFO - Processing period has ended.
2022-11-01 09:17:43,852 - basicLogger - INFO - Periodic processing has started
2022-11-01 09:17:46,372 - basicLogger - INFO - Number of set grocery events received: 0
2022-11-01 09:17:48,903 - basicLogger - INFO - Number of manual grocery events received: 0
2022-11-01 09:17:48,903 - basicLogger - DEBUG - Number of set grocery orders: 0, Max set grocery orders: 200Number of manual grocery orders: 0, Max manual grocery orders200
2022-11-01 09:17:48,911 - basicLogger - INFO - Processing period has ended.
2022-11-01 09:17:53,847 - basicLogger - INFO - Periodic processing has started
2022-11-01 09:17:56,384 - basicLogger - INFO - Number of set grocery events received: 0
2022-11-01 09:17:58,925 - basicLogger - INFO - Number of manual grocery events received: 0
2022-11-01 09:17:58,925 - basicLogger - DEBUG - Number of set grocery orders: 0, Max set grocery orders: 200Number of manual grocery orders: 0, Max manual grocery orders200
2022-11-01 09:17:58,940 - basicLogger - INFO - Processing period has ended.
2022-11-01 09:18:03,854 - basicLogger - INFO - Periodic processing has started
2022-11-01 09:18:06,423 - basicLogger - INFO - Number of set grocery events received: 0
2022-11-01 09:18:08,979 - basicLogger - INFO - Number of manual grocery events received: 0
2022-11-01 09:18:08,994 - basicLogger - DEBUG - Number of set grocery orders: 0, Max set grocery orders: 200Number of manual grocery orders: 0, Max manual grocery orders200
2022-11-01 09:18:08,994 - basicLogger - INFO - Processing period has ended.
2022-11-01 09:18:13,853 - basicLogger - INFO - Periodic processing has started
2022-11-01 09:18:16,565 - basicLogger - INFO - Number of set grocery events received: 0
2022-11-01 09:18:19,191 - basicLogger - INFO - Number of manual grocery events received: 0
2022-11-01 09:18:19,194 - basicLogger - DEBUG - Number of set grocery orders: 0, Max set grocery orders: 200Number of manual grocery orders: 0, Max manual grocery orders200
2022-11-01 09:18:19,203 - basicLogger - INFO - Processing period has ended.
2022-11-01 09:18:23,848 - basicLogger - INFO - Periodic processing has started
2022-11-01 09:18:26,494 - basicLogger - INFO - Number of set grocery events received: 0
2022-11-01 09:18:29,078 - basicLogger - INFO - Number of manual grocery events received: 0
2022-11-01 09:18:29,078 - basicLogger - DEBUG - Number of set grocery orders: 0, Max set grocery orders: 200Number of manual grocery orders: 0, Max manual grocery orders200
2022-11-01 09:18:29,086 - basicLogger - INFO - Processing period has ended.
2022-11-01 09:18:33,842 - basicLogger - INFO - Periodic processing has started
2022-11-01 09:18:36,484 - basicLogger - INFO - Number of set grocery events received: 0
2022-11-01 09:18:39,051 - basicLogger - INFO - Number of manual grocery events received: 0
2022-11-01 09:18:39,051 - basicLogger - DEBUG - Number of set grocery orders: 0, Max set grocery orders: 200Number of manual grocery orders: 0, Max manual grocery orders200
2022-11-01 09:18:39,066 - basicLogger - INFO - Processing period has ended.
2022-11-01 09:18:43,856 - basicLogger - INFO - Periodic processing has started
2022-11-01 09:18:46,399 - basicLogger - INFO - Number of set grocery events received: 0
2022-11-01 09:18:49,131 - basicLogger - INFO - Number of manual grocery events received: 0
2022-11-01 09:18:49,132 - basicLogger - DEBUG - Number of set grocery orders: 0, Max set grocery orders: 200Number of manual grocery orders: 0, Max manual grocery orders200
2022-11-01 09:18:49,139 - basicLogger - INFO - Processing period has ended.
2022-11-01 09:18:53,844 - basicLogger - INFO - Periodic processing has started
2022-11-01 09:18:56,387 - basicLogger - INFO - Number of set grocery events received: 0
2022-11-01 09:18:58,920 - basicLogger - INFO - Number of manual grocery events received: 0
2022-11-01 09:18:58,920 - basicLogger - DEBUG - Number of set grocery orders: 0, Max set grocery orders: 200Number of manual grocery orders: 0, Max manual grocery orders200
2022-11-01 09:18:58,935 - basicLogger - INFO - Processing period has ended.
2022-11-01 09:19:03,840 - basicLogger - INFO - Periodic processing has started
2022-11-01 09:19:06,441 - basicLogger - INFO - Number of set grocery events received: 0
2022-11-01 09:19:08,979 - basicLogger - INFO - Number of manual grocery events received: 0
2022-11-01 09:19:08,979 - basicLogger - DEBUG - Number of set grocery orders: 0, Max set grocery orders: 200Number of manual grocery orders: 0, Max manual grocery orders200
2022-11-01 09:19:08,987 - basicLogger - INFO - Processing period has ended.
2022-11-01 09:19:13,841 - basicLogger - INFO - Periodic processing has started
2022-11-01 09:19:16,477 - basicLogger - INFO - Number of set grocery events received: 0
2022-11-01 09:19:19,014 - basicLogger - INFO - Number of manual grocery events received: 0
2022-11-01 09:19:19,014 - basicLogger - DEBUG - Number of set grocery orders: 0, Max set grocery orders: 200Number of manual grocery orders: 0, Max manual grocery orders200
2022-11-01 09:19:19,024 - basicLogger - INFO - Processing period has ended.
2022-11-01 09:19:23,849 - basicLogger - INFO - Periodic processing has started
2022-11-01 09:19:26,392 - basicLogger - INFO - Number of set grocery events received: 0
2022-11-01 09:19:29,068 - basicLogger - INFO - Number of manual grocery events received: 0
2022-11-01 09:19:29,068 - basicLogger - DEBUG - Number of set grocery orders: 0, Max set grocery orders: 200Number of manual grocery orders: 0, Max manual grocery orders200
2022-11-01 09:19:29,075 - basicLogger - INFO - Processing period has ended.
2022-11-01 09:19:33,843 - basicLogger - INFO - Periodic processing has started
2022-11-01 09:19:36,604 - basicLogger - INFO - Number of set grocery events received: 0
2022-11-01 09:19:39,216 - basicLogger - INFO - Number of manual grocery events received: 0
2022-11-01 09:19:39,216 - basicLogger - DEBUG - Number of set grocery orders: 0, Max set grocery orders: 200Number of manual grocery orders: 0, Max manual grocery orders200
2022-11-01 09:19:39,230 - basicLogger - INFO - Processing period has ended.
2022-11-01 09:19:43,844 - basicLogger - INFO - Periodic processing has started
2022-11-01 09:19:46,476 - basicLogger - INFO - Number of set grocery events received: 0
2022-11-01 09:19:49,137 - basicLogger - INFO - Number of manual grocery events received: 0
2022-11-01 09:19:49,137 - basicLogger - DEBUG - Number of set grocery orders: 0, Max set grocery orders: 200Number of manual grocery orders: 0, Max manual grocery orders200
2022-11-01 09:19:49,146 - basicLogger - INFO - Processing period has ended.
2022-11-01 09:19:53,844 - basicLogger - INFO - Periodic processing has started
2022-11-01 09:19:56,474 - basicLogger - INFO - Number of set grocery events received: 0
2022-11-01 09:19:59,033 - basicLogger - INFO - Number of manual grocery events received: 0
2022-11-01 09:19:59,033 - basicLogger - DEBUG - Number of set grocery orders: 0, Max set grocery orders: 200Number of manual grocery orders: 0, Max manual grocery orders200
2022-11-01 09:19:59,047 - basicLogger - INFO - Processing period has ended.
2022-11-01 09:20:03,841 - basicLogger - INFO - Periodic processing has started
2022-11-01 09:20:06,374 - basicLogger - INFO - Number of set grocery events received: 0
2022-11-01 09:20:08,934 - basicLogger - INFO - Number of manual grocery events received: 0
2022-11-01 09:20:08,934 - basicLogger - DEBUG - Number of set grocery orders: 0, Max set grocery orders: 200Number of manual grocery orders: 0, Max manual grocery orders200
2022-11-01 09:20:08,951 - basicLogger - INFO - Processing period has ended.
2022-11-01 09:20:13,852 - basicLogger - INFO - Periodic processing has started
2022-11-01 09:20:16,438 - basicLogger - INFO - Number of set grocery events received: 0
2022-11-01 09:20:19,001 - basicLogger - INFO - Number of manual grocery events received: 0
2022-11-01 09:20:19,001 - basicLogger - DEBUG - Number of set grocery orders: 0, Max set grocery orders: 200Number of manual grocery orders: 0, Max manual grocery orders200
2022-11-01 09:20:19,016 - basicLogger - INFO - Processing period has ended.
2022-11-01 09:20:23,852 - basicLogger - INFO - Periodic processing has started
2022-11-01 09:20:26,428 - basicLogger - INFO - Number of set grocery events received: 0
2022-11-01 09:20:28,975 - basicLogger - INFO - Number of manual grocery events received: 0
2022-11-01 09:20:28,975 - basicLogger - DEBUG - Number of set grocery orders: 0, Max set grocery orders: 200Number of manual grocery orders: 0, Max manual grocery orders200
2022-11-01 09:20:28,982 - basicLogger - INFO - Processing period has ended.
2022-11-01 09:20:33,842 - basicLogger - INFO - Periodic processing has started
2022-11-01 09:20:36,471 - basicLogger - INFO - Number of set grocery events received: 0
2022-11-01 09:20:39,110 - basicLogger - INFO - Number of manual grocery events received: 0
2022-11-01 09:20:39,110 - basicLogger - DEBUG - Number of set grocery orders: 0, Max set grocery orders: 200Number of manual grocery orders: 0, Max manual grocery orders200
2022-11-01 09:20:39,126 - basicLogger - INFO - Processing period has ended.
2022-11-01 09:20:43,842 - basicLogger - INFO - Periodic processing has started
2022-11-01 09:20:46,480 - basicLogger - INFO - Number of set grocery events received: 0
2022-11-01 09:20:49,046 - basicLogger - INFO - Number of manual grocery events received: 0
2022-11-01 09:20:49,046 - basicLogger - DEBUG - Number of set grocery orders: 0, Max set grocery orders: 200Number of manual grocery orders: 0, Max manual grocery orders200
2022-11-01 09:20:49,054 - basicLogger - INFO - Processing period has ended.
2022-11-01 09:20:53,851 - basicLogger - INFO - Periodic processing has started
2022-11-01 09:20:56,415 - basicLogger - INFO - Number of set grocery events received: 0
2022-11-01 09:20:58,998 - basicLogger - INFO - Number of manual grocery events received: 0
2022-11-01 09:20:58,998 - basicLogger - DEBUG - Number of set grocery orders: 0, Max set grocery orders: 200Number of manual grocery orders: 0, Max manual grocery orders200
2022-11-01 09:20:59,007 - basicLogger - INFO - Processing period has ended.
2022-11-01 09:21:03,847 - basicLogger - INFO - Periodic processing has started
2022-11-01 09:21:06,474 - basicLogger - INFO - Number of set grocery events received: 0
2022-11-01 09:21:09,117 - basicLogger - INFO - Number of manual grocery events received: 0
2022-11-01 09:21:09,117 - basicLogger - DEBUG - Number of set grocery orders: 0, Max set grocery orders: 200Number of manual grocery orders: 0, Max manual grocery orders200
2022-11-01 09:21:09,130 - basicLogger - INFO - Processing period has ended.
2022-11-01 09:21:13,842 - basicLogger - INFO - Periodic processing has started
2022-11-01 09:21:16,400 - basicLogger - INFO - Number of set grocery events received: 0
2022-11-01 09:21:18,928 - basicLogger - INFO - Number of manual grocery events received: 0
2022-11-01 09:21:18,928 - basicLogger - DEBUG - Number of set grocery orders: 0, Max set grocery orders: 200Number of manual grocery orders: 0, Max manual grocery orders200
2022-11-01 09:21:18,932 - basicLogger - INFO - Processing period has ended.
2022-11-01 09:21:23,844 - basicLogger - INFO - Periodic processing has started
2022-11-01 09:21:26,526 - basicLogger - INFO - Number of set grocery events received: 0
2022-11-01 09:21:29,101 - basicLogger - INFO - Number of manual grocery events received: 0
2022-11-01 09:21:29,101 - basicLogger - DEBUG - Number of set grocery orders: 0, Max set grocery orders: 200Number of manual grocery orders: 0, Max manual grocery orders200
2022-11-01 09:21:29,117 - basicLogger - INFO - Processing period has ended.
2022-11-01 09:21:33,844 - basicLogger - INFO - Periodic processing has started
2022-11-01 09:21:36,418 - basicLogger - INFO - Number of set grocery events received: 0
2022-11-01 09:21:38,968 - basicLogger - INFO - Number of manual grocery events received: 0
2022-11-01 09:21:38,968 - basicLogger - DEBUG - Number of set grocery orders: 0, Max set grocery orders: 200Number of manual grocery orders: 0, Max manual grocery orders200
2022-11-01 09:21:38,981 - basicLogger - INFO - Processing period has ended.
2022-11-01 09:21:43,852 - basicLogger - INFO - Periodic processing has started
2022-11-01 09:21:46,404 - basicLogger - INFO - Number of set grocery events received: 0
2022-11-01 09:21:48,994 - basicLogger - INFO - Number of manual grocery events received: 0
2022-11-01 09:21:48,994 - basicLogger - DEBUG - Number of set grocery orders: 0, Max set grocery orders: 200Number of manual grocery orders: 0, Max manual grocery orders200
2022-11-01 09:21:49,009 - basicLogger - INFO - Processing period has ended.
2022-11-01 09:21:53,844 - basicLogger - INFO - Periodic processing has started
2022-11-01 09:21:56,449 - basicLogger - INFO - Number of set grocery events received: 0
2022-11-01 09:21:59,085 - basicLogger - INFO - Number of manual grocery events received: 0
2022-11-01 09:21:59,085 - basicLogger - DEBUG - Number of set grocery orders: 0, Max set grocery orders: 200Number of manual grocery orders: 0, Max manual grocery orders200
2022-11-01 09:21:59,101 - basicLogger - INFO - Processing period has ended.
2022-11-01 09:22:03,849 - basicLogger - INFO - Periodic processing has started
2022-11-01 09:22:06,527 - basicLogger - DEBUG - Trace ID: 191829045
2022-11-01 09:22:06,527 - basicLogger - DEBUG - Trace ID: 150185495
2022-11-01 09:22:06,527 - basicLogger - DEBUG - Trace ID: 755267920
2022-11-01 09:22:06,527 - basicLogger - DEBUG - Trace ID: 543702417
2022-11-01 09:22:06,527 - basicLogger - DEBUG - Trace ID: 396310068
2022-11-01 09:22:06,527 - basicLogger - INFO - Number of set grocery events received: 5
2022-11-01 09:22:09,051 - basicLogger - DEBUG - Trace ID: 925978996
2022-11-01 09:22:09,051 - basicLogger - INFO - Number of manual grocery events received: 1
2022-11-01 09:22:09,051 - basicLogger - DEBUG - Number of set grocery orders: 5, Max set grocery orders: 200Number of manual grocery orders: 1, Max manual grocery orders200
2022-11-01 09:22:09,064 - basicLogger - INFO - Processing period has ended.
2022-11-01 09:22:13,850 - basicLogger - INFO - Periodic processing has started
2022-11-01 09:22:16,454 - basicLogger - DEBUG - Trace ID: 196241564
2022-11-01 09:22:16,454 - basicLogger - DEBUG - Trace ID: 776035253
2022-11-01 09:22:16,454 - basicLogger - DEBUG - Trace ID: 872925253
2022-11-01 09:22:16,454 - basicLogger - INFO - Number of set grocery events received: 3
2022-11-01 09:22:18,967 - basicLogger - DEBUG - Trace ID: 579483516
2022-11-01 09:22:18,967 - basicLogger - DEBUG - Trace ID: 890332292
2022-11-01 09:22:18,967 - basicLogger - DEBUG - Trace ID: 902249251
2022-11-01 09:22:18,967 - basicLogger - INFO - Number of manual grocery events received: 3
2022-11-01 09:22:18,967 - basicLogger - DEBUG - Number of set grocery orders: 8, Max set grocery orders: 200Number of manual grocery orders: 4, Max manual grocery orders200
2022-11-01 09:22:18,982 - basicLogger - INFO - Processing period has ended.
2022-11-01 09:22:23,850 - basicLogger - INFO - Periodic processing has started
2022-11-01 09:22:26,384 - basicLogger - INFO - Number of set grocery events received: 0
2022-11-01 09:22:28,922 - basicLogger - DEBUG - Trace ID: 7095096
2022-11-01 09:22:28,922 - basicLogger - DEBUG - Trace ID: 300427762
2022-11-01 09:22:28,922 - basicLogger - DEBUG - Trace ID: 647415751
2022-11-01 09:22:28,922 - basicLogger - DEBUG - Trace ID: 157917484
2022-11-01 09:22:28,923 - basicLogger - DEBUG - Trace ID: 814276928
2022-11-01 09:22:28,923 - basicLogger - INFO - Number of manual grocery events received: 5
2022-11-01 09:22:28,923 - basicLogger - DEBUG - Number of set grocery orders: 8, Max set grocery orders: 200Number of manual grocery orders: 9, Max manual grocery orders200
2022-11-01 09:22:28,943 - basicLogger - INFO - Processing period has ended.
2022-11-01 09:22:33,839 - basicLogger - INFO - Periodic processing has started
2022-11-01 09:22:36,484 - basicLogger - DEBUG - Trace ID: 692070775
2022-11-01 09:22:36,484 - basicLogger - INFO - Number of set grocery events received: 1
2022-11-01 09:22:39,011 - basicLogger - DEBUG - Trace ID: 996579917
2022-11-01 09:22:39,011 - basicLogger - DEBUG - Trace ID: 732731795
2022-11-01 09:22:39,011 - basicLogger - DEBUG - Trace ID: 597266771
2022-11-01 09:22:39,011 - basicLogger - DEBUG - Trace ID: 30824887
2022-11-01 09:22:39,011 - basicLogger - DEBUG - Trace ID: 341276113
2022-11-01 09:22:39,011 - basicLogger - INFO - Number of manual grocery events received: 5
2022-11-01 09:22:39,011 - basicLogger - DEBUG - Number of set grocery orders: 9, Max set grocery orders: 200Number of manual grocery orders: 14, Max manual grocery orders200
2022-11-01 09:22:39,011 - basicLogger - INFO - Processing period has ended.
2022-11-01 09:22:43,839 - basicLogger - INFO - Periodic processing has started
2022-11-01 09:22:46,412 - basicLogger - DEBUG - Trace ID: 949583919
2022-11-01 09:22:46,412 - basicLogger - DEBUG - Trace ID: 620254170
2022-11-01 09:22:46,412 - basicLogger - DEBUG - Trace ID: 748174326
2022-11-01 09:22:46,412 - basicLogger - INFO - Number of set grocery events received: 3
2022-11-01 09:22:48,922 - basicLogger - DEBUG - Trace ID: 475716924
2022-11-01 09:22:48,922 - basicLogger - DEBUG - Trace ID: 144862623
2022-11-01 09:22:48,922 - basicLogger - DEBUG - Trace ID: 24365946
2022-11-01 09:22:48,922 - basicLogger - DEBUG - Trace ID: 139644405
2022-11-01 09:22:48,922 - basicLogger - DEBUG - Trace ID: 315448663
2022-11-01 09:22:48,922 - basicLogger - INFO - Number of manual grocery events received: 5
2022-11-01 09:22:48,922 - basicLogger - DEBUG - Number of set grocery orders: 12, Max set grocery orders: 200Number of manual grocery orders: 19, Max manual grocery orders200
2022-11-01 09:22:48,936 - basicLogger - INFO - Processing period has ended.
2022-11-01 09:22:53,842 - basicLogger - INFO - Periodic processing has started
2022-11-01 09:22:56,367 - basicLogger - DEBUG - Trace ID: 493219408
2022-11-01 09:22:56,367 - basicLogger - DEBUG - Trace ID: 665806002
2022-11-01 09:22:56,367 - basicLogger - DEBUG - Trace ID: 255038071
2022-11-01 09:22:56,367 - basicLogger - DEBUG - Trace ID: 60487830
2022-11-01 09:22:56,367 - basicLogger - DEBUG - Trace ID: 910170533
2022-11-01 09:22:56,367 - basicLogger - INFO - Number of set grocery events received: 5
2022-11-01 09:22:58,885 - basicLogger - DEBUG - Trace ID: 458290431
2022-11-01 09:22:58,885 - basicLogger - DEBUG - Trace ID: 813952951
2022-11-01 09:22:58,885 - basicLogger - DEBUG - Trace ID: 209989452
2022-11-01 09:22:58,885 - basicLogger - INFO - Number of manual grocery events received: 3
2022-11-01 09:22:58,885 - basicLogger - DEBUG - Number of set grocery orders: 17, Max set grocery orders: 200Number of manual grocery orders: 22, Max manual grocery orders200
2022-11-01 09:22:58,898 - basicLogger - INFO - Processing period has ended.
2022-11-01 09:23:03,847 - basicLogger - INFO - Periodic processing has started
2022-11-01 09:23:06,382 - basicLogger - INFO - Number of set grocery events received: 0
2022-11-01 09:23:08,918 - basicLogger - DEBUG - Trace ID: 669433913
2022-11-01 09:23:08,918 - basicLogger - INFO - Number of manual grocery events received: 1
2022-11-01 09:23:08,918 - basicLogger - DEBUG - Number of set grocery orders: 17, Max set grocery orders: 200Number of manual grocery orders: 23, Max manual grocery orders200
2022-11-01 09:23:08,925 - basicLogger - INFO - Processing period has ended.
2022-11-01 09:23:13,841 - basicLogger - INFO - Periodic processing has started
2022-11-01 09:23:16,366 - basicLogger - INFO - Number of set grocery events received: 0
2022-11-01 09:23:18,983 - basicLogger - INFO - Number of manual grocery events received: 0
2022-11-01 09:23:18,983 - basicLogger - DEBUG - Number of set grocery orders: 17, Max set grocery orders: 200Number of manual grocery orders: 23, Max manual grocery orders200
2022-11-01 09:23:18,989 - basicLogger - INFO - Processing period has ended.
2022-11-01 09:23:23,844 - basicLogger - INFO - Periodic processing has started
2022-11-01 09:23:26,380 - basicLogger - INFO - Number of set grocery events received: 0
2022-11-01 09:23:28,948 - basicLogger - INFO - Number of manual grocery events received: 0
2022-11-01 09:23:28,948 - basicLogger - DEBUG - Number of set grocery orders: 17, Max set grocery orders: 200Number of manual grocery orders: 23, Max manual grocery orders200
2022-11-01 09:23:28,955 - basicLogger - INFO - Processing period has ended.
2022-11-01 09:23:33,848 - basicLogger - INFO - Periodic processing has started
2022-11-01 09:23:36,375 - basicLogger - INFO - Number of set grocery events received: 0
2022-11-01 09:23:38,928 - basicLogger - INFO - Number of manual grocery events received: 0
2022-11-01 09:23:38,928 - basicLogger - DEBUG - Number of set grocery orders: 17, Max set grocery orders: 200Number of manual grocery orders: 23, Max manual grocery orders200
2022-11-01 09:23:38,940 - basicLogger - INFO - Processing period has ended.
2022-11-01 09:23:43,848 - basicLogger - INFO - Periodic processing has started
2022-11-01 09:23:46,424 - basicLogger - INFO - Number of set grocery events received: 0
2022-11-01 09:23:48,967 - basicLogger - INFO - Number of manual grocery events received: 0
2022-11-01 09:23:48,967 - basicLogger - DEBUG - Number of set grocery orders: 17, Max set grocery orders: 200Number of manual grocery orders: 23, Max manual grocery orders200
2022-11-01 09:23:48,980 - basicLogger - INFO - Processing period has ended.
2022-11-01 09:23:53,849 - basicLogger - INFO - Periodic processing has started
2022-11-01 09:23:56,372 - basicLogger - INFO - Number of set grocery events received: 0
2022-11-01 09:23:58,971 - basicLogger - INFO - Number of manual grocery events received: 0
2022-11-01 09:23:58,971 - basicLogger - DEBUG - Number of set grocery orders: 17, Max set grocery orders: 200Number of manual grocery orders: 23, Max manual grocery orders200
2022-11-01 09:23:58,979 - basicLogger - INFO - Processing period has ended.
2022-11-01 09:24:03,839 - basicLogger - INFO - Periodic processing has started
2022-11-01 09:24:06,360 - basicLogger - INFO - Number of set grocery events received: 0
2022-11-01 09:24:08,963 - basicLogger - INFO - Number of manual grocery events received: 0
2022-11-01 09:24:08,963 - basicLogger - DEBUG - Number of set grocery orders: 17, Max set grocery orders: 200Number of manual grocery orders: 23, Max manual grocery orders200
2022-11-01 09:24:08,971 - basicLogger - INFO - Processing period has ended.
2022-11-01 09:24:13,846 - basicLogger - INFO - Periodic processing has started
2022-11-01 09:24:16,401 - basicLogger - INFO - Number of set grocery events received: 0
2022-11-01 09:24:18,969 - basicLogger - INFO - Number of manual grocery events received: 0
2022-11-01 09:24:18,969 - basicLogger - DEBUG - Number of set grocery orders: 17, Max set grocery orders: 200Number of manual grocery orders: 23, Max manual grocery orders200
2022-11-01 09:24:18,973 - basicLogger - INFO - Processing period has ended.
2022-11-01 09:24:23,847 - basicLogger - INFO - Periodic processing has started
2022-11-01 09:24:26,394 - basicLogger - INFO - Number of set grocery events received: 0
2022-11-01 09:24:29,056 - basicLogger - INFO - Number of manual grocery events received: 0
2022-11-01 09:24:29,056 - basicLogger - DEBUG - Number of set grocery orders: 17, Max set grocery orders: 200Number of manual grocery orders: 23, Max manual grocery orders200
2022-11-01 09:24:29,064 - basicLogger - INFO - Processing period has ended.
2022-11-01 09:24:33,844 - basicLogger - INFO - Periodic processing has started
2022-11-01 09:24:36,394 - basicLogger - INFO - Number of set grocery events received: 0
2022-11-01 09:24:39,851 - basicLogger - INFO - Number of manual grocery events received: 0
2022-11-01 09:24:39,851 - basicLogger - DEBUG - Number of set grocery orders: 17, Max set grocery orders: 200Number of manual grocery orders: 23, Max manual grocery orders200
2022-11-01 09:24:39,859 - basicLogger - INFO - Processing period has ended.
2022-11-01 09:24:43,848 - basicLogger - INFO - Periodic processing has started
2022-11-01 09:24:46,369 - basicLogger - INFO - Number of set grocery events received: 0
2022-11-01 09:24:48,887 - basicLogger - INFO - Number of manual grocery events received: 0
2022-11-01 09:24:48,887 - basicLogger - DEBUG - Number of set grocery orders: 17, Max set grocery orders: 200Number of manual grocery orders: 23, Max manual grocery orders200
2022-11-01 09:24:48,895 - basicLogger - INFO - Processing period has ended.
2022-11-01 09:24:53,843 - basicLogger - INFO - Periodic processing has started
2022-11-01 09:24:56,354 - basicLogger - INFO - Number of set grocery events received: 0
2022-11-01 09:24:58,891 - basicLogger - INFO - Number of manual grocery events received: 0
2022-11-01 09:24:58,891 - basicLogger - DEBUG - Number of set grocery orders: 17, Max set grocery orders: 200Number of manual grocery orders: 23, Max manual grocery orders200
2022-11-01 09:24:58,906 - basicLogger - INFO - Processing period has ended.
2022-11-01 09:25:03,845 - basicLogger - INFO - Periodic processing has started
2022-11-01 09:25:06,474 - basicLogger - INFO - Number of set grocery events received: 0
2022-11-01 09:25:09,038 - basicLogger - INFO - Number of manual grocery events received: 0
2022-11-01 09:25:09,038 - basicLogger - DEBUG - Number of set grocery orders: 17, Max set grocery orders: 200Number of manual grocery orders: 23, Max manual grocery orders200
2022-11-01 09:25:09,045 - basicLogger - INFO - Processing period has ended.
2022-11-01 09:25:13,855 - basicLogger - INFO - Periodic processing has started
2022-11-01 09:25:16,436 - basicLogger - INFO - Number of set grocery events received: 0
2022-11-01 09:25:18,972 - basicLogger - INFO - Number of manual grocery events received: 0
2022-11-01 09:25:18,972 - basicLogger - DEBUG - Number of set grocery orders: 17, Max set grocery orders: 200Number of manual grocery orders: 23, Max manual grocery orders200
2022-11-01 09:25:18,981 - basicLogger - INFO - Processing period has ended.
2022-11-01 09:25:23,847 - basicLogger - INFO - Periodic processing has started
2022-11-01 09:25:26,449 - basicLogger - INFO - Number of set grocery events received: 0
2022-11-01 09:25:28,983 - basicLogger - INFO - Number of manual grocery events received: 0
2022-11-01 09:25:28,983 - basicLogger - DEBUG - Number of set grocery orders: 17, Max set grocery orders: 200Number of manual grocery orders: 23, Max manual grocery orders200
2022-11-01 09:25:28,983 - basicLogger - INFO - Processing period has ended.
2022-11-01 09:25:33,852 - basicLogger - INFO - Periodic processing has started
2022-11-01 09:25:36,516 - basicLogger - INFO - Number of set grocery events received: 0
2022-11-01 09:25:39,058 - basicLogger - INFO - Number of manual grocery events received: 0
2022-11-01 09:25:39,058 - basicLogger - DEBUG - Number of set grocery orders: 17, Max set grocery orders: 200Number of manual grocery orders: 23, Max manual grocery orders200
2022-11-01 09:25:39,058 - basicLogger - INFO - Processing period has ended.
2022-11-01 09:25:43,854 - basicLogger - INFO - Periodic processing has started
2022-11-01 09:25:46,402 - basicLogger - INFO - Number of set grocery events received: 0
2022-11-01 09:25:48,974 - basicLogger - INFO - Number of manual grocery events received: 0
2022-11-01 09:25:48,974 - basicLogger - DEBUG - Number of set grocery orders: 17, Max set grocery orders: 200Number of manual grocery orders: 23, Max manual grocery orders200
2022-11-01 09:25:48,991 - basicLogger - INFO - Processing period has ended.
2022-11-01 09:25:53,852 - basicLogger - INFO - Periodic processing has started
2022-11-01 09:25:56,387 - basicLogger - INFO - Number of set grocery events received: 0
2022-11-01 09:25:58,899 - basicLogger - INFO - Number of manual grocery events received: 0
2022-11-01 09:25:58,899 - basicLogger - DEBUG - Number of set grocery orders: 17, Max set grocery orders: 200Number of manual grocery orders: 23, Max manual grocery orders200
2022-11-01 09:25:58,908 - basicLogger - INFO - Processing period has ended.
2022-11-01 09:26:03,842 - basicLogger - INFO - Periodic processing has started
2022-11-01 09:26:06,384 - basicLogger - INFO - Number of set grocery events received: 0
2022-11-01 09:26:09,005 - basicLogger - INFO - Number of manual grocery events received: 0
2022-11-01 09:26:09,005 - basicLogger - DEBUG - Number of set grocery orders: 17, Max set grocery orders: 200Number of manual grocery orders: 23, Max manual grocery orders200
2022-11-01 09:26:09,012 - basicLogger - INFO - Processing period has ended.
2022-11-01 09:26:13,844 - basicLogger - INFO - Periodic processing has started
2022-11-01 09:26:16,476 - basicLogger - INFO - Number of set grocery events received: 0
2022-11-01 09:26:19,024 - basicLogger - INFO - Number of manual grocery events received: 0
2022-11-01 09:26:19,024 - basicLogger - DEBUG - Number of set grocery orders: 17, Max set grocery orders: 200Number of manual grocery orders: 23, Max manual grocery orders200
2022-11-01 09:26:19,032 - basicLogger - INFO - Processing period has ended.
2022-11-01 09:26:23,840 - basicLogger - INFO - Periodic processing has started
2022-11-01 09:26:26,456 - basicLogger - INFO - Number of set grocery events received: 0
2022-11-01 09:26:29,034 - basicLogger - INFO - Number of manual grocery events received: 0
2022-11-01 09:26:29,034 - basicLogger - DEBUG - Number of set grocery orders: 17, Max set grocery orders: 200Number of manual grocery orders: 23, Max manual grocery orders200
2022-11-01 09:26:29,042 - basicLogger - INFO - Processing period has ended.
2022-11-01 09:26:33,842 - basicLogger - INFO - Periodic processing has started
2022-11-01 09:26:36,492 - basicLogger - INFO - Number of set grocery events received: 0
2022-11-01 09:26:39,105 - basicLogger - INFO - Number of manual grocery events received: 0
2022-11-01 09:26:39,105 - basicLogger - DEBUG - Number of set grocery orders: 17, Max set grocery orders: 200Number of manual grocery orders: 23, Max manual grocery orders200
2022-11-01 09:26:39,121 - basicLogger - INFO - Processing period has ended.
2022-11-01 09:26:43,847 - basicLogger - INFO - Periodic processing has started
2022-11-01 09:26:46,406 - basicLogger - INFO - Number of set grocery events received: 0
2022-11-01 09:26:49,002 - basicLogger - INFO - Number of manual grocery events received: 0
2022-11-01 09:26:49,002 - basicLogger - DEBUG - Number of set grocery orders: 17, Max set grocery orders: 200Number of manual grocery orders: 23, Max manual grocery orders200
2022-11-01 09:26:49,010 - basicLogger - INFO - Processing period has ended.
2022-11-01 09:26:53,854 - basicLogger - INFO - Periodic processing has started
2022-11-01 09:26:56,399 - basicLogger - INFO - Number of set grocery events received: 0
2022-11-01 09:26:59,082 - basicLogger - INFO - Number of manual grocery events received: 0
2022-11-01 09:26:59,082 - basicLogger - DEBUG - Number of set grocery orders: 17, Max set grocery orders: 200Number of manual grocery orders: 23, Max manual grocery orders200
2022-11-01 09:26:59,086 - basicLogger - INFO - Processing period has ended.
2022-11-01 09:27:03,844 - basicLogger - INFO - Periodic processing has started
2022-11-01 09:27:06,393 - basicLogger - INFO - Number of set grocery events received: 0
2022-11-01 09:27:08,969 - basicLogger - INFO - Number of manual grocery events received: 0
2022-11-01 09:27:08,969 - basicLogger - DEBUG - Number of set grocery orders: 17, Max set grocery orders: 200Number of manual grocery orders: 23, Max manual grocery orders200
2022-11-01 09:27:08,977 - basicLogger - INFO - Processing period has ended.
2022-11-01 09:27:13,842 - basicLogger - INFO - Periodic processing has started
2022-11-01 09:27:16,446 - basicLogger - INFO - Number of set grocery events received: 0
2022-11-01 09:27:18,984 - basicLogger - INFO - Number of manual grocery events received: 0
2022-11-01 09:27:18,988 - basicLogger - DEBUG - Number of set grocery orders: 17, Max set grocery orders: 200Number of manual grocery orders: 23, Max manual grocery orders200
2022-11-01 09:27:18,996 - basicLogger - INFO - Processing period has ended.
2022-11-01 09:27:23,849 - basicLogger - INFO - Periodic processing has started
2022-11-01 09:27:26,392 - basicLogger - INFO - Number of set grocery events received: 0
2022-11-01 09:27:28,979 - basicLogger - INFO - Number of manual grocery events received: 0
2022-11-01 09:27:28,979 - basicLogger - DEBUG - Number of set grocery orders: 17, Max set grocery orders: 200Number of manual grocery orders: 23, Max manual grocery orders200
2022-11-01 09:27:28,987 - basicLogger - INFO - Processing period has ended.
2022-11-01 09:27:33,843 - basicLogger - INFO - Periodic processing has started
2022-11-01 09:27:36,387 - basicLogger - INFO - Number of set grocery events received: 0
2022-11-01 09:27:38,921 - basicLogger - INFO - Number of manual grocery events received: 0
2022-11-01 09:27:38,922 - basicLogger - DEBUG - Number of set grocery orders: 17, Max set grocery orders: 200Number of manual grocery orders: 23, Max manual grocery orders200
2022-11-01 09:27:38,929 - basicLogger - INFO - Processing period has ended.
2022-11-01 09:27:43,850 - basicLogger - INFO - Periodic processing has started
2022-11-01 09:27:46,395 - basicLogger - INFO - Number of set grocery events received: 0
2022-11-01 09:27:48,928 - basicLogger - INFO - Number of manual grocery events received: 0
2022-11-01 09:27:48,928 - basicLogger - DEBUG - Number of set grocery orders: 17, Max set grocery orders: 200Number of manual grocery orders: 23, Max manual grocery orders200
2022-11-01 09:27:48,945 - basicLogger - INFO - Processing period has ended.
2022-11-01 09:27:53,852 - basicLogger - INFO - Periodic processing has started
2022-11-01 09:27:56,393 - basicLogger - INFO - Number of set grocery events received: 0
2022-11-01 09:27:58,915 - basicLogger - INFO - Number of manual grocery events received: 0
2022-11-01 09:27:58,915 - basicLogger - DEBUG - Number of set grocery orders: 17, Max set grocery orders: 200Number of manual grocery orders: 23, Max manual grocery orders200
2022-11-01 09:27:58,929 - basicLogger - INFO - Processing period has ended.
2022-11-01 09:28:03,843 - basicLogger - INFO - Periodic processing has started
2022-11-01 09:28:06,381 - basicLogger - INFO - Number of set grocery events received: 0
2022-11-01 09:28:08,976 - basicLogger - INFO - Number of manual grocery events received: 0
2022-11-01 09:28:08,976 - basicLogger - DEBUG - Number of set grocery orders: 17, Max set grocery orders: 200Number of manual grocery orders: 23, Max manual grocery orders200
2022-11-01 09:28:08,993 - basicLogger - INFO - Processing period has ended.
2022-11-01 09:28:13,847 - basicLogger - INFO - Periodic processing has started
2022-11-01 09:28:16,435 - basicLogger - INFO - Number of set grocery events received: 0
2022-11-01 09:28:18,996 - basicLogger - INFO - Number of manual grocery events received: 0
2022-11-01 09:28:18,996 - basicLogger - DEBUG - Number of set grocery orders: 17, Max set grocery orders: 200Number of manual grocery orders: 23, Max manual grocery orders200
2022-11-01 09:28:19,010 - basicLogger - INFO - Processing period has ended.
2022-11-01 09:28:23,843 - basicLogger - INFO - Periodic processing has started
2022-11-01 09:28:26,424 - basicLogger - INFO - Number of set grocery events received: 0
2022-11-01 09:28:28,959 - basicLogger - INFO - Number of manual grocery events received: 0
2022-11-01 09:28:28,959 - basicLogger - DEBUG - Number of set grocery orders: 17, Max set grocery orders: 200Number of manual grocery orders: 23, Max manual grocery orders200
2022-11-01 09:28:28,969 - basicLogger - INFO - Processing period has ended.
2022-11-01 09:28:33,843 - basicLogger - INFO - Periodic processing has started
2022-11-01 09:28:36,383 - basicLogger - INFO - Number of set grocery events received: 0
2022-11-01 09:28:38,905 - basicLogger - INFO - Number of manual grocery events received: 0
2022-11-01 09:28:38,905 - basicLogger - DEBUG - Number of set grocery orders: 17, Max set grocery orders: 200Number of manual grocery orders: 23, Max manual grocery orders200
2022-11-01 09:28:38,913 - basicLogger - INFO - Processing period has ended.
2022-11-01 09:28:43,843 - basicLogger - INFO - Periodic processing has started
2022-11-01 09:28:46,540 - basicLogger - INFO - Number of set grocery events received: 0
2022-11-01 09:28:49,083 - basicLogger - INFO - Number of manual grocery events received: 0
2022-11-01 09:28:49,083 - basicLogger - DEBUG - Number of set grocery orders: 17, Max set grocery orders: 200Number of manual grocery orders: 23, Max manual grocery orders200
2022-11-01 09:28:49,086 - basicLogger - INFO - Processing period has ended.
2022-11-01 09:28:53,842 - basicLogger - INFO - Periodic processing has started
2022-11-01 09:28:56,363 - basicLogger - INFO - Number of set grocery events received: 0
2022-11-01 09:28:58,900 - basicLogger - INFO - Number of manual grocery events received: 0
2022-11-01 09:28:58,900 - basicLogger - DEBUG - Number of set grocery orders: 17, Max set grocery orders: 200Number of manual grocery orders: 23, Max manual grocery orders200
2022-11-01 09:28:58,910 - basicLogger - INFO - Processing period has ended.
2022-11-01 09:29:03,844 - basicLogger - INFO - Periodic processing has started
2022-11-01 09:29:06,425 - basicLogger - INFO - Number of set grocery events received: 0
2022-11-01 09:29:08,966 - basicLogger - INFO - Number of manual grocery events received: 0
2022-11-01 09:29:08,966 - basicLogger - DEBUG - Number of set grocery orders: 17, Max set grocery orders: 200Number of manual grocery orders: 23, Max manual grocery orders200
2022-11-01 09:29:08,978 - basicLogger - INFO - Processing period has ended.
2022-11-01 09:29:13,852 - basicLogger - INFO - Periodic processing has started
2022-11-01 09:29:16,390 - basicLogger - INFO - Number of set grocery events received: 0
2022-11-01 09:29:18,906 - basicLogger - INFO - Number of manual grocery events received: 0
2022-11-01 09:29:18,906 - basicLogger - DEBUG - Number of set grocery orders: 17, Max set grocery orders: 200Number of manual grocery orders: 23, Max manual grocery orders200
2022-11-01 09:29:18,914 - basicLogger - INFO - Processing period has ended.
2022-11-01 09:29:23,849 - basicLogger - INFO - Periodic processing has started
2022-11-01 09:29:26,438 - basicLogger - INFO - Number of set grocery events received: 0
2022-11-01 09:29:28,957 - basicLogger - INFO - Number of manual grocery events received: 0
2022-11-01 09:29:28,957 - basicLogger - DEBUG - Number of set grocery orders: 17, Max set grocery orders: 200Number of manual grocery orders: 23, Max manual grocery orders200
2022-11-01 09:29:28,965 - basicLogger - INFO - Processing period has ended.
2022-11-01 09:29:33,851 - basicLogger - INFO - Periodic processing has started
2022-11-01 09:29:36,410 - basicLogger - INFO - Number of set grocery events received: 0
2022-11-01 09:29:38,966 - basicLogger - INFO - Number of manual grocery events received: 0
2022-11-01 09:29:38,966 - basicLogger - DEBUG - Number of set grocery orders: 17, Max set grocery orders: 200Number of manual grocery orders: 23, Max manual grocery orders200
2022-11-01 09:29:38,973 - basicLogger - INFO - Processing period has ended.
2022-11-01 09:29:43,850 - basicLogger - INFO - Periodic processing has started
2022-11-01 09:29:46,549 - basicLogger - INFO - Number of set grocery events received: 0
2022-11-01 09:29:49,107 - basicLogger - INFO - Number of manual grocery events received: 0
2022-11-01 09:29:49,107 - basicLogger - DEBUG - Number of set grocery orders: 17, Max set grocery orders: 200Number of manual grocery orders: 23, Max manual grocery orders200
2022-11-01 09:29:49,107 - basicLogger - INFO - Processing period has ended.
2022-11-01 09:29:53,844 - basicLogger - INFO - Periodic processing has started
2022-11-01 09:29:56,385 - basicLogger - INFO - Number of set grocery events received: 0
2022-11-01 09:29:58,954 - basicLogger - INFO - Number of manual grocery events received: 0
2022-11-01 09:29:58,954 - basicLogger - DEBUG - Number of set grocery orders: 17, Max set grocery orders: 200Number of manual grocery orders: 23, Max manual grocery orders200
2022-11-01 09:29:58,964 - basicLogger - INFO - Processing period has ended.
2022-11-01 09:30:03,844 - basicLogger - INFO - Periodic processing has started
2022-11-01 09:30:06,486 - basicLogger - INFO - Number of set grocery events received: 0
2022-11-01 09:30:09,002 - basicLogger - INFO - Number of manual grocery events received: 0
2022-11-01 09:30:09,002 - basicLogger - DEBUG - Number of set grocery orders: 17, Max set grocery orders: 200Number of manual grocery orders: 23, Max manual grocery orders200
2022-11-01 09:30:09,018 - basicLogger - INFO - Processing period has ended.
2022-11-01 09:30:13,853 - basicLogger - INFO - Periodic processing has started
2022-11-01 09:30:16,460 - basicLogger - INFO - Number of set grocery events received: 0
2022-11-01 09:30:19,012 - basicLogger - INFO - Number of manual grocery events received: 0
2022-11-01 09:30:19,012 - basicLogger - DEBUG - Number of set grocery orders: 17, Max set grocery orders: 200Number of manual grocery orders: 23, Max manual grocery orders200
2022-11-01 09:30:19,012 - basicLogger - INFO - Processing period has ended.
2022-11-01 09:30:23,849 - basicLogger - INFO - Periodic processing has started
2022-11-01 09:30:26,372 - basicLogger - INFO - Number of set grocery events received: 0
2022-11-01 09:30:28,906 - basicLogger - INFO - Number of manual grocery events received: 0
2022-11-01 09:30:28,906 - basicLogger - DEBUG - Number of set grocery orders: 17, Max set grocery orders: 200Number of manual grocery orders: 23, Max manual grocery orders200
2022-11-01 09:30:28,914 - basicLogger - INFO - Processing period has ended.
2022-11-01 09:30:33,849 - basicLogger - INFO - Periodic processing has started
2022-11-01 09:30:36,402 - basicLogger - INFO - Number of set grocery events received: 0
2022-11-01 09:30:38,928 - basicLogger - INFO - Number of manual grocery events received: 0
2022-11-01 09:30:38,928 - basicLogger - DEBUG - Number of set grocery orders: 17, Max set grocery orders: 200Number of manual grocery orders: 23, Max manual grocery orders200
2022-11-01 09:30:38,944 - basicLogger - INFO - Processing period has ended.
2022-11-01 09:30:43,843 - basicLogger - INFO - Periodic processing has started
2022-11-01 09:30:46,453 - basicLogger - INFO - Number of set grocery events received: 0
2022-11-01 09:30:49,078 - basicLogger - INFO - Number of manual grocery events received: 0
2022-11-01 09:30:49,078 - basicLogger - DEBUG - Number of set grocery orders: 17, Max set grocery orders: 200Number of manual grocery orders: 23, Max manual grocery orders200
2022-11-01 09:30:49,092 - basicLogger - INFO - Processing period has ended.
2022-11-01 09:30:53,843 - basicLogger - INFO - Periodic processing has started
2022-11-01 09:30:56,484 - basicLogger - INFO - Number of set grocery events received: 0
2022-11-01 09:30:59,042 - basicLogger - INFO - Number of manual grocery events received: 0
2022-11-01 09:30:59,042 - basicLogger - DEBUG - Number of set grocery orders: 17, Max set grocery orders: 200Number of manual grocery orders: 23, Max manual grocery orders200
2022-11-01 09:30:59,067 - basicLogger - INFO - Processing period has ended.
2022-11-01 09:31:03,845 - basicLogger - INFO - Periodic processing has started
2022-11-01 09:31:06,445 - basicLogger - INFO - Number of set grocery events received: 0
2022-11-01 09:31:09,076 - basicLogger - INFO - Number of manual grocery events received: 0
2022-11-01 09:31:09,076 - basicLogger - DEBUG - Number of set grocery orders: 17, Max set grocery orders: 200Number of manual grocery orders: 23, Max manual grocery orders200
2022-11-01 09:31:09,084 - basicLogger - INFO - Processing period has ended.
2022-11-01 09:31:13,849 - basicLogger - INFO - Periodic processing has started
2022-11-01 09:31:16,558 - basicLogger - INFO - Number of set grocery events received: 0
2022-11-01 09:31:19,144 - basicLogger - INFO - Number of manual grocery events received: 0
2022-11-01 09:31:19,144 - basicLogger - DEBUG - Number of set grocery orders: 17, Max set grocery orders: 200Number of manual grocery orders: 23, Max manual grocery orders200
2022-11-01 09:31:19,151 - basicLogger - INFO - Processing period has ended.
2022-11-01 09:31:23,854 - basicLogger - INFO - Periodic processing has started
2022-11-01 09:31:26,413 - basicLogger - INFO - Number of set grocery events received: 0
2022-11-01 09:31:28,990 - basicLogger - INFO - Number of manual grocery events received: 0
2022-11-01 09:31:28,990 - basicLogger - DEBUG - Number of set grocery orders: 17, Max set grocery orders: 200Number of manual grocery orders: 23, Max manual grocery orders200
2022-11-01 09:31:28,998 - basicLogger - INFO - Processing period has ended.
2022-11-01 09:31:33,846 - basicLogger - INFO - Periodic processing has started
2022-11-01 09:31:36,423 - basicLogger - INFO - Number of set grocery events received: 0
2022-11-01 09:31:38,982 - basicLogger - INFO - Number of manual grocery events received: 0
2022-11-01 09:31:38,982 - basicLogger - DEBUG - Number of set grocery orders: 17, Max set grocery orders: 200Number of manual grocery orders: 23, Max manual grocery orders200
2022-11-01 09:31:38,996 - basicLogger - INFO - Processing period has ended.
2022-11-01 09:31:43,853 - basicLogger - INFO - Periodic processing has started
2022-11-01 09:31:46,422 - basicLogger - INFO - Number of set grocery events received: 0
2022-11-01 09:31:48,977 - basicLogger - INFO - Number of manual grocery events received: 0
2022-11-01 09:31:48,985 - basicLogger - DEBUG - Number of set grocery orders: 17, Max set grocery orders: 200Number of manual grocery orders: 23, Max manual grocery orders200
2022-11-01 09:31:48,993 - basicLogger - INFO - Processing period has ended.
2022-11-01 09:31:53,844 - basicLogger - INFO - Periodic processing has started
2022-11-01 09:31:56,365 - basicLogger - INFO - Number of set grocery events received: 0
2022-11-01 09:31:58,910 - basicLogger - INFO - Number of manual grocery events received: 0
2022-11-01 09:31:58,910 - basicLogger - DEBUG - Number of set grocery orders: 17, Max set grocery orders: 200Number of manual grocery orders: 23, Max manual grocery orders200
2022-11-01 09:31:58,923 - basicLogger - INFO - Processing period has ended.
2022-11-01 09:32:03,852 - basicLogger - INFO - Periodic processing has started
2022-11-01 09:32:06,451 - basicLogger - INFO - Number of set grocery events received: 0
2022-11-01 09:32:09,007 - basicLogger - INFO - Number of manual grocery events received: 0
2022-11-01 09:32:09,007 - basicLogger - DEBUG - Number of set grocery orders: 17, Max set grocery orders: 200Number of manual grocery orders: 23, Max manual grocery orders200
2022-11-01 09:32:09,013 - basicLogger - INFO - Processing period has ended.
2022-11-01 09:32:13,846 - basicLogger - INFO - Periodic processing has started
2022-11-01 09:32:16,392 - basicLogger - INFO - Number of set grocery events received: 0
2022-11-01 09:32:18,985 - basicLogger - INFO - Number of manual grocery events received: 0
2022-11-01 09:32:18,985 - basicLogger - DEBUG - Number of set grocery orders: 17, Max set grocery orders: 200Number of manual grocery orders: 23, Max manual grocery orders200
2022-11-01 09:32:19,001 - basicLogger - INFO - Processing period has ended.
2022-11-01 09:32:23,849 - basicLogger - INFO - Periodic processing has started
2022-11-01 09:32:26,422 - basicLogger - INFO - Number of set grocery events received: 0
2022-11-01 09:32:28,985 - basicLogger - INFO - Number of manual grocery events received: 0
2022-11-01 09:32:28,987 - basicLogger - DEBUG - Number of set grocery orders: 17, Max set grocery orders: 200Number of manual grocery orders: 23, Max manual grocery orders200
2022-11-01 09:32:28,996 - basicLogger - INFO - Processing period has ended.
2022-11-01 09:32:33,842 - basicLogger - INFO - Periodic processing has started
2022-11-01 09:32:36,386 - basicLogger - INFO - Number of set grocery events received: 0
2022-11-01 09:32:38,912 - basicLogger - INFO - Number of manual grocery events received: 0
2022-11-01 09:32:38,912 - basicLogger - DEBUG - Number of set grocery orders: 17, Max set grocery orders: 200Number of manual grocery orders: 23, Max manual grocery orders200
2022-11-01 09:32:38,920 - basicLogger - INFO - Processing period has ended.
2022-11-01 09:32:43,850 - basicLogger - INFO - Periodic processing has started
2022-11-01 09:32:46,466 - basicLogger - INFO - Number of set grocery events received: 0
2022-11-01 09:32:48,995 - basicLogger - INFO - Number of manual grocery events received: 0
2022-11-01 09:32:48,995 - basicLogger - DEBUG - Number of set grocery orders: 17, Max set grocery orders: 200Number of manual grocery orders: 23, Max manual grocery orders200
2022-11-01 09:32:49,008 - basicLogger - INFO - Processing period has ended.
2022-11-01 09:32:53,846 - basicLogger - INFO - Periodic processing has started
2022-11-01 09:32:56,424 - basicLogger - INFO - Number of set grocery events received: 0
2022-11-01 09:32:58,979 - basicLogger - INFO - Number of manual grocery events received: 0
2022-11-01 09:32:58,979 - basicLogger - DEBUG - Number of set grocery orders: 17, Max set grocery orders: 200Number of manual grocery orders: 23, Max manual grocery orders200
2022-11-01 09:32:58,995 - basicLogger - INFO - Processing period has ended.
2022-11-01 09:33:03,847 - basicLogger - INFO - Periodic processing has started
2022-11-01 09:33:06,383 - basicLogger - INFO - Number of set grocery events received: 0
2022-11-01 09:33:08,912 - basicLogger - INFO - Number of manual grocery events received: 0
2022-11-01 09:33:08,912 - basicLogger - DEBUG - Number of set grocery orders: 17, Max set grocery orders: 200Number of manual grocery orders: 23, Max manual grocery orders200
2022-11-01 09:33:08,919 - basicLogger - INFO - Processing period has ended.
2022-11-01 09:33:13,844 - basicLogger - INFO - Periodic processing has started
2022-11-01 09:33:16,367 - basicLogger - INFO - Number of set grocery events received: 0
2022-11-01 09:33:18,983 - basicLogger - INFO - Number of manual grocery events received: 0
2022-11-01 09:33:18,983 - basicLogger - DEBUG - Number of set grocery orders: 17, Max set grocery orders: 200Number of manual grocery orders: 23, Max manual grocery orders200
2022-11-01 09:33:18,995 - basicLogger - INFO - Processing period has ended.
2022-11-01 09:33:23,848 - basicLogger - INFO - Periodic processing has started
2022-11-01 09:33:26,503 - basicLogger - INFO - Number of set grocery events received: 0
2022-11-01 09:33:29,125 - basicLogger - INFO - Number of manual grocery events received: 0
2022-11-01 09:33:29,125 - basicLogger - DEBUG - Number of set grocery orders: 17, Max set grocery orders: 200Number of manual grocery orders: 23, Max manual grocery orders200
2022-11-01 09:33:29,137 - basicLogger - INFO - Processing period has ended.
2022-11-01 09:33:33,840 - basicLogger - INFO - Periodic processing has started
2022-11-01 09:33:36,399 - basicLogger - INFO - Number of set grocery events received: 0
2022-11-01 09:33:38,956 - basicLogger - INFO - Number of manual grocery events received: 0
2022-11-01 09:33:38,956 - basicLogger - DEBUG - Number of set grocery orders: 17, Max set grocery orders: 200Number of manual grocery orders: 23, Max manual grocery orders200
2022-11-01 09:33:38,972 - basicLogger - INFO - Processing period has ended.
2022-11-01 09:33:43,848 - basicLogger - INFO - Periodic processing has started
2022-11-01 09:33:46,431 - basicLogger - INFO - Number of set grocery events received: 0
2022-11-01 09:33:48,975 - basicLogger - INFO - Number of manual grocery events received: 0
2022-11-01 09:33:48,975 - basicLogger - DEBUG - Number of set grocery orders: 17, Max set grocery orders: 200Number of manual grocery orders: 23, Max manual grocery orders200
2022-11-01 09:33:48,990 - basicLogger - INFO - Processing period has ended.
2022-11-01 09:33:53,847 - basicLogger - INFO - Periodic processing has started
2022-11-01 09:33:56,483 - basicLogger - INFO - Number of set grocery events received: 0
2022-11-01 09:33:58,995 - basicLogger - INFO - Number of manual grocery events received: 0
2022-11-01 09:33:58,995 - basicLogger - DEBUG - Number of set grocery orders: 17, Max set grocery orders: 200Number of manual grocery orders: 23, Max manual grocery orders200
2022-11-01 09:33:59,003 - basicLogger - INFO - Processing period has ended.
2022-11-01 09:34:03,849 - basicLogger - INFO - Periodic processing has started
2022-11-01 09:34:06,379 - basicLogger - INFO - Number of set grocery events received: 0
2022-11-01 09:34:09,002 - basicLogger - INFO - Number of manual grocery events received: 0
2022-11-01 09:34:09,002 - basicLogger - DEBUG - Number of set grocery orders: 17, Max set grocery orders: 200Number of manual grocery orders: 23, Max manual grocery orders200
2022-11-01 09:34:09,010 - basicLogger - INFO - Processing period has ended.
2022-11-01 09:34:13,843 - basicLogger - INFO - Periodic processing has started
2022-11-01 09:34:16,472 - basicLogger - INFO - Number of set grocery events received: 0
2022-11-01 09:34:19,038 - basicLogger - INFO - Number of manual grocery events received: 0
2022-11-01 09:34:19,038 - basicLogger - DEBUG - Number of set grocery orders: 17, Max set grocery orders: 200Number of manual grocery orders: 23, Max manual grocery orders200
2022-11-01 09:34:19,046 - basicLogger - INFO - Processing period has ended.
2022-11-01 09:34:23,853 - basicLogger - INFO - Periodic processing has started
2022-11-01 09:34:26,612 - basicLogger - INFO - Number of set grocery events received: 0
2022-11-01 09:34:29,127 - basicLogger - INFO - Number of manual grocery events received: 0
2022-11-01 09:34:29,127 - basicLogger - DEBUG - Number of set grocery orders: 17, Max set grocery orders: 200Number of manual grocery orders: 23, Max manual grocery orders200
2022-11-01 09:34:29,136 - basicLogger - INFO - Processing period has ended.
2022-11-01 09:34:33,851 - basicLogger - INFO - Periodic processing has started
2022-11-01 09:34:36,377 - basicLogger - INFO - Number of set grocery events received: 0
2022-11-01 09:34:38,907 - basicLogger - INFO - Number of manual grocery events received: 0
2022-11-01 09:34:38,907 - basicLogger - DEBUG - Number of set grocery orders: 17, Max set grocery orders: 200Number of manual grocery orders: 23, Max manual grocery orders200
2022-11-01 09:34:38,923 - basicLogger - INFO - Processing period has ended.
2022-11-01 09:34:43,844 - basicLogger - INFO - Periodic processing has started
2022-11-01 09:34:46,441 - basicLogger - INFO - Number of set grocery events received: 0
2022-11-01 09:34:48,963 - basicLogger - INFO - Number of manual grocery events received: 0
2022-11-01 09:34:48,963 - basicLogger - DEBUG - Number of set grocery orders: 17, Max set grocery orders: 200Number of manual grocery orders: 23, Max manual grocery orders200
2022-11-01 09:34:48,971 - basicLogger - INFO - Processing period has ended.
2022-11-01 09:34:53,853 - basicLogger - INFO - Periodic processing has started
2022-11-01 09:34:56,419 - basicLogger - INFO - Number of set grocery events received: 0
2022-11-01 09:34:59,082 - basicLogger - INFO - Number of manual grocery events received: 0
2022-11-01 09:34:59,082 - basicLogger - DEBUG - Number of set grocery orders: 17, Max set grocery orders: 200Number of manual grocery orders: 23, Max manual grocery orders200
2022-11-01 09:34:59,090 - basicLogger - INFO - Processing period has ended.
2022-11-01 09:35:03,843 - basicLogger - INFO - Periodic processing has started
2022-11-01 09:35:06,384 - basicLogger - INFO - Number of set grocery events received: 0
2022-11-01 09:35:08,917 - basicLogger - INFO - Number of manual grocery events received: 0
2022-11-01 09:35:08,917 - basicLogger - DEBUG - Number of set grocery orders: 17, Max set grocery orders: 200Number of manual grocery orders: 23, Max manual grocery orders200
2022-11-01 09:35:08,924 - basicLogger - INFO - Processing period has ended.
2022-11-01 09:35:13,843 - basicLogger - INFO - Periodic processing has started
2022-11-01 09:35:16,412 - basicLogger - INFO - Number of set grocery events received: 0
2022-11-01 09:35:19,010 - basicLogger - INFO - Number of manual grocery events received: 0
2022-11-01 09:35:19,010 - basicLogger - DEBUG - Number of set grocery orders: 17, Max set grocery orders: 200Number of manual grocery orders: 23, Max manual grocery orders200
2022-11-01 09:35:19,021 - basicLogger - INFO - Processing period has ended.
2022-11-01 09:35:23,852 - basicLogger - INFO - Periodic processing has started
2022-11-01 09:35:26,436 - basicLogger - INFO - Number of set grocery events received: 0
2022-11-01 09:35:29,002 - basicLogger - INFO - Number of manual grocery events received: 0
2022-11-01 09:35:29,002 - basicLogger - DEBUG - Number of set grocery orders: 17, Max set grocery orders: 200Number of manual grocery orders: 23, Max manual grocery orders200
2022-11-01 09:35:29,018 - basicLogger - INFO - Processing period has ended.
2022-11-01 09:35:33,840 - basicLogger - INFO - Periodic processing has started
2022-11-01 09:35:36,373 - basicLogger - INFO - Number of set grocery events received: 0
2022-11-01 09:35:38,932 - basicLogger - INFO - Number of manual grocery events received: 0
2022-11-01 09:35:38,932 - basicLogger - DEBUG - Number of set grocery orders: 17, Max set grocery orders: 200Number of manual grocery orders: 23, Max manual grocery orders200
2022-11-01 09:35:38,939 - basicLogger - INFO - Processing period has ended.
2022-11-01 09:35:43,847 - basicLogger - INFO - Periodic processing has started
2022-11-01 09:35:46,445 - basicLogger - INFO - Number of set grocery events received: 0
2022-11-01 09:35:49,050 - basicLogger - INFO - Number of manual grocery events received: 0
2022-11-01 09:35:49,050 - basicLogger - DEBUG - Number of set grocery orders: 17, Max set grocery orders: 200Number of manual grocery orders: 23, Max manual grocery orders200
2022-11-01 09:35:49,057 - basicLogger - INFO - Processing period has ended.
2022-11-01 09:35:53,846 - basicLogger - INFO - Periodic processing has started
2022-11-01 09:35:56,386 - basicLogger - INFO - Number of set grocery events received: 0
2022-11-01 09:35:58,979 - basicLogger - INFO - Number of manual grocery events received: 0
2022-11-01 09:35:58,979 - basicLogger - DEBUG - Number of set grocery orders: 17, Max set grocery orders: 200Number of manual grocery orders: 23, Max manual grocery orders200
2022-11-01 09:35:58,987 - basicLogger - INFO - Processing period has ended.
2022-11-01 09:36:03,839 - basicLogger - INFO - Periodic processing has started
2022-11-01 09:36:06,417 - basicLogger - INFO - Number of set grocery events received: 0
2022-11-01 09:36:08,976 - basicLogger - INFO - Number of manual grocery events received: 0
2022-11-01 09:36:08,976 - basicLogger - DEBUG - Number of set grocery orders: 17, Max set grocery orders: 200Number of manual grocery orders: 23, Max manual grocery orders200
2022-11-01 09:36:08,985 - basicLogger - INFO - Processing period has ended.
2022-11-01 09:36:13,846 - basicLogger - INFO - Periodic processing has started
2022-11-01 09:36:16,359 - basicLogger - INFO - Number of set grocery events received: 0
2022-11-01 09:36:18,893 - basicLogger - INFO - Number of manual grocery events received: 0
2022-11-01 09:36:18,901 - basicLogger - DEBUG - Number of set grocery orders: 17, Max set grocery orders: 200Number of manual grocery orders: 23, Max manual grocery orders200
2022-11-01 09:36:18,909 - basicLogger - INFO - Processing period has ended.
2022-11-01 09:36:23,845 - basicLogger - INFO - Periodic processing has started
2022-11-01 09:36:26,362 - basicLogger - INFO - Number of set grocery events received: 0
2022-11-01 09:36:28,905 - basicLogger - INFO - Number of manual grocery events received: 0
2022-11-01 09:36:28,905 - basicLogger - DEBUG - Number of set grocery orders: 17, Max set grocery orders: 200Number of manual grocery orders: 23, Max manual grocery orders200
2022-11-01 09:36:28,913 - basicLogger - INFO - Processing period has ended.
2022-11-01 09:36:33,842 - basicLogger - INFO - Periodic processing has started
2022-11-01 09:36:36,416 - basicLogger - INFO - Number of set grocery events received: 0
2022-11-01 09:36:38,980 - basicLogger - INFO - Number of manual grocery events received: 0
2022-11-01 09:36:38,980 - basicLogger - DEBUG - Number of set grocery orders: 17, Max set grocery orders: 200Number of manual grocery orders: 23, Max manual grocery orders200
2022-11-01 09:36:38,987 - basicLogger - INFO - Processing period has ended.
2022-11-01 09:36:43,846 - basicLogger - INFO - Periodic processing has started
2022-11-01 09:36:46,452 - basicLogger - INFO - Number of set grocery events received: 0
2022-11-01 09:36:49,006 - basicLogger - INFO - Number of manual grocery events received: 0
2022-11-01 09:36:49,006 - basicLogger - DEBUG - Number of set grocery orders: 17, Max set grocery orders: 200Number of manual grocery orders: 23, Max manual grocery orders200
2022-11-01 09:36:49,015 - basicLogger - INFO - Processing period has ended.
2022-11-01 09:36:53,840 - basicLogger - INFO - Periodic processing has started
2022-11-01 09:36:56,492 - basicLogger - INFO - Number of set grocery events received: 0
2022-11-01 09:36:59,022 - basicLogger - INFO - Number of manual grocery events received: 0
2022-11-01 09:36:59,022 - basicLogger - DEBUG - Number of set grocery orders: 17, Max set grocery orders: 200Number of manual grocery orders: 23, Max manual grocery orders200
2022-11-01 09:36:59,032 - basicLogger - INFO - Processing period has ended.
2022-11-01 09:37:03,847 - basicLogger - INFO - Periodic processing has started
2022-11-01 09:37:06,383 - basicLogger - INFO - Number of set grocery events received: 0
2022-11-01 09:37:08,919 - basicLogger - INFO - Number of manual grocery events received: 0
2022-11-01 09:37:08,919 - basicLogger - DEBUG - Number of set grocery orders: 17, Max set grocery orders: 200Number of manual grocery orders: 23, Max manual grocery orders200
2022-11-01 09:37:08,935 - basicLogger - INFO - Processing period has ended.
2022-11-01 09:37:13,844 - basicLogger - INFO - Periodic processing has started
2022-11-01 09:37:16,387 - basicLogger - INFO - Number of set grocery events received: 0
2022-11-01 09:37:18,960 - basicLogger - INFO - Number of manual grocery events received: 0
2022-11-01 09:37:18,960 - basicLogger - DEBUG - Number of set grocery orders: 17, Max set grocery orders: 200Number of manual grocery orders: 23, Max manual grocery orders200
2022-11-01 09:37:18,971 - basicLogger - INFO - Processing period has ended.
2022-11-01 09:37:23,853 - basicLogger - INFO - Periodic processing has started
2022-11-01 09:37:26,519 - basicLogger - INFO - Number of set grocery events received: 0
2022-11-01 09:37:29,122 - basicLogger - INFO - Number of manual grocery events received: 0
2022-11-01 09:37:29,122 - basicLogger - DEBUG - Number of set grocery orders: 17, Max set grocery orders: 200Number of manual grocery orders: 23, Max manual grocery orders200
2022-11-01 09:37:29,135 - basicLogger - INFO - Processing period has ended.
2022-11-01 09:37:33,848 - basicLogger - INFO - Periodic processing has started
2022-11-01 09:37:36,491 - basicLogger - INFO - Number of set grocery events received: 0
2022-11-01 09:37:39,060 - basicLogger - INFO - Number of manual grocery events received: 0
2022-11-01 09:37:39,064 - basicLogger - DEBUG - Number of set grocery orders: 17, Max set grocery orders: 200Number of manual grocery orders: 23, Max manual grocery orders200
2022-11-01 09:37:39,069 - basicLogger - INFO - Processing period has ended.
2022-11-01 09:37:43,852 - basicLogger - INFO - Periodic processing has started
2022-11-01 09:37:46,502 - basicLogger - INFO - Number of set grocery events received: 0
2022-11-01 09:37:49,125 - basicLogger - INFO - Number of manual grocery events received: 0
2022-11-01 09:37:49,125 - basicLogger - DEBUG - Number of set grocery orders: 17, Max set grocery orders: 200Number of manual grocery orders: 23, Max manual grocery orders200
2022-11-01 09:37:49,141 - basicLogger - INFO - Processing period has ended.
2022-11-01 09:37:53,844 - basicLogger - INFO - Periodic processing has started
2022-11-01 09:37:56,396 - basicLogger - INFO - Number of set grocery events received: 0
2022-11-01 09:37:58,914 - basicLogger - INFO - Number of manual grocery events received: 0
2022-11-01 09:37:58,914 - basicLogger - DEBUG - Number of set grocery orders: 17, Max set grocery orders: 200Number of manual grocery orders: 23, Max manual grocery orders200
2022-11-01 09:37:58,926 - basicLogger - INFO - Processing period has ended.
2022-11-01 09:38:03,841 - basicLogger - INFO - Periodic processing has started
2022-11-01 09:38:06,376 - basicLogger - INFO - Number of set grocery events received: 0
2022-11-01 09:38:08,995 - basicLogger - INFO - Number of manual grocery events received: 0
2022-11-01 09:38:08,995 - basicLogger - DEBUG - Number of set grocery orders: 17, Max set grocery orders: 200Number of manual grocery orders: 23, Max manual grocery orders200
2022-11-01 09:38:09,000 - basicLogger - INFO - Processing period has ended.
2022-11-01 09:38:13,853 - basicLogger - INFO - Periodic processing has started
2022-11-01 09:38:16,461 - basicLogger - INFO - Number of set grocery events received: 0
2022-11-01 09:38:19,063 - basicLogger - INFO - Number of manual grocery events received: 0
2022-11-01 09:38:19,063 - basicLogger - DEBUG - Number of set grocery orders: 17, Max set grocery orders: 200Number of manual grocery orders: 23, Max manual grocery orders200
2022-11-01 09:38:19,070 - basicLogger - INFO - Processing period has ended.
2022-11-01 09:38:23,842 - basicLogger - INFO - Periodic processing has started
2022-11-01 09:38:26,401 - basicLogger - INFO - Number of set grocery events received: 0
2022-11-01 09:38:28,921 - basicLogger - INFO - Number of manual grocery events received: 0
2022-11-01 09:38:28,921 - basicLogger - DEBUG - Number of set grocery orders: 17, Max set grocery orders: 200Number of manual grocery orders: 23, Max manual grocery orders200
2022-11-01 09:38:28,934 - basicLogger - INFO - Processing period has ended.
2022-11-01 09:38:33,854 - basicLogger - INFO - Periodic processing has started
2022-11-01 09:38:36,404 - basicLogger - INFO - Number of set grocery events received: 0
2022-11-01 09:38:38,993 - basicLogger - INFO - Number of manual grocery events received: 0
2022-11-01 09:38:38,993 - basicLogger - DEBUG - Number of set grocery orders: 17, Max set grocery orders: 200Number of manual grocery orders: 23, Max manual grocery orders200
2022-11-01 09:38:39,002 - basicLogger - INFO - Processing period has ended.
2022-11-01 09:38:43,843 - basicLogger - INFO - Periodic processing has started
2022-11-01 09:38:46,429 - basicLogger - INFO - Number of set grocery events received: 0
2022-11-01 09:38:49,068 - basicLogger - INFO - Number of manual grocery events received: 0
2022-11-01 09:38:49,068 - basicLogger - DEBUG - Number of set grocery orders: 17, Max set grocery orders: 200Number of manual grocery orders: 23, Max manual grocery orders200
2022-11-01 09:38:49,076 - basicLogger - INFO - Processing period has ended.
2022-11-01 09:38:53,850 - basicLogger - INFO - Periodic processing has started
2022-11-01 09:38:56,475 - basicLogger - INFO - Number of set grocery events received: 0
2022-11-01 09:38:59,102 - basicLogger - INFO - Number of manual grocery events received: 0
2022-11-01 09:38:59,102 - basicLogger - DEBUG - Number of set grocery orders: 17, Max set grocery orders: 200Number of manual grocery orders: 23, Max manual grocery orders200
2022-11-01 09:38:59,118 - basicLogger - INFO - Processing period has ended.
2022-11-01 09:39:03,852 - basicLogger - INFO - Periodic processing has started
2022-11-01 09:39:06,473 - basicLogger - INFO - Number of set grocery events received: 0
2022-11-01 09:39:09,040 - basicLogger - INFO - Number of manual grocery events received: 0
2022-11-01 09:39:09,040 - basicLogger - DEBUG - Number of set grocery orders: 17, Max set grocery orders: 200Number of manual grocery orders: 23, Max manual grocery orders200
2022-11-01 09:39:09,050 - basicLogger - INFO - Processing period has ended.
2022-11-01 09:39:13,846 - basicLogger - INFO - Periodic processing has started
2022-11-01 09:39:16,432 - basicLogger - INFO - Number of set grocery events received: 0
2022-11-01 09:39:19,077 - basicLogger - INFO - Number of manual grocery events received: 0
2022-11-01 09:39:19,077 - basicLogger - DEBUG - Number of set grocery orders: 17, Max set grocery orders: 200Number of manual grocery orders: 23, Max manual grocery orders200
2022-11-01 09:39:19,082 - basicLogger - INFO - Processing period has ended.
2022-11-01 09:39:23,840 - basicLogger - INFO - Periodic processing has started
2022-11-01 09:39:26,387 - basicLogger - INFO - Number of set grocery events received: 0
2022-11-01 09:39:29,069 - basicLogger - INFO - Number of manual grocery events received: 0
2022-11-01 09:39:29,069 - basicLogger - DEBUG - Number of set grocery orders: 17, Max set grocery orders: 200Number of manual grocery orders: 23, Max manual grocery orders200
2022-11-01 09:39:29,074 - basicLogger - INFO - Processing period has ended.
2022-11-01 09:39:33,843 - basicLogger - INFO - Periodic processing has started
2022-11-01 09:39:36,483 - basicLogger - INFO - Number of set grocery events received: 0
2022-11-01 09:39:39,014 - basicLogger - INFO - Number of manual grocery events received: 0
2022-11-01 09:39:39,021 - basicLogger - DEBUG - Number of set grocery orders: 17, Max set grocery orders: 200Number of manual grocery orders: 23, Max manual grocery orders200
2022-11-01 09:39:39,029 - basicLogger - INFO - Processing period has ended.
2022-11-01 09:39:43,839 - basicLogger - INFO - Periodic processing has started
2022-11-01 09:39:46,385 - basicLogger - INFO - Number of set grocery events received: 0
2022-11-01 09:39:48,901 - basicLogger - INFO - Number of manual grocery events received: 0
2022-11-01 09:39:48,901 - basicLogger - DEBUG - Number of set grocery orders: 17, Max set grocery orders: 200Number of manual grocery orders: 23, Max manual grocery orders200
2022-11-01 09:39:48,905 - basicLogger - INFO - Processing period has ended.
2022-11-01 09:39:53,844 - basicLogger - INFO - Periodic processing has started
2022-11-01 09:39:56,491 - basicLogger - INFO - Number of set grocery events received: 0
2022-11-01 09:39:59,029 - basicLogger - INFO - Number of manual grocery events received: 0
2022-11-01 09:39:59,029 - basicLogger - DEBUG - Number of set grocery orders: 17, Max set grocery orders: 200Number of manual grocery orders: 23, Max manual grocery orders200
2022-11-01 09:39:59,037 - basicLogger - INFO - Processing period has ended.
2022-11-01 09:40:03,841 - basicLogger - INFO - Periodic processing has started
2022-11-01 09:40:06,404 - basicLogger - INFO - Number of set grocery events received: 0
2022-11-01 09:40:09,049 - basicLogger - INFO - Number of manual grocery events received: 0
2022-11-01 09:40:09,051 - basicLogger - DEBUG - Number of set grocery orders: 17, Max set grocery orders: 200Number of manual grocery orders: 23, Max manual grocery orders200
2022-11-01 09:40:09,057 - basicLogger - INFO - Processing period has ended.
2022-11-01 09:40:13,855 - basicLogger - INFO - Periodic processing has started
2022-11-01 09:40:16,385 - basicLogger - INFO - Number of set grocery events received: 0
2022-11-01 09:40:19,082 - basicLogger - INFO - Number of manual grocery events received: 0
2022-11-01 09:40:19,082 - basicLogger - DEBUG - Number of set grocery orders: 17, Max set grocery orders: 200Number of manual grocery orders: 23, Max manual grocery orders200
2022-11-01 09:40:19,089 - basicLogger - INFO - Processing period has ended.
2022-11-01 09:40:23,841 - basicLogger - INFO - Periodic processing has started
2022-11-01 09:40:26,408 - basicLogger - INFO - Number of set grocery events received: 0
2022-11-01 09:40:29,011 - basicLogger - INFO - Number of manual grocery events received: 0
2022-11-01 09:40:29,011 - basicLogger - DEBUG - Number of set grocery orders: 17, Max set grocery orders: 200Number of manual grocery orders: 23, Max manual grocery orders200
2022-11-01 09:40:29,027 - basicLogger - INFO - Processing period has ended.
2022-11-01 09:40:33,843 - basicLogger - INFO - Periodic processing has started
2022-11-01 09:40:36,367 - basicLogger - INFO - Number of set grocery events received: 0
2022-11-01 09:40:38,908 - basicLogger - INFO - Number of manual grocery events received: 0
2022-11-01 09:40:38,908 - basicLogger - DEBUG - Number of set grocery orders: 17, Max set grocery orders: 200Number of manual grocery orders: 23, Max manual grocery orders200
2022-11-01 09:40:38,916 - basicLogger - INFO - Processing period has ended.
2022-11-01 09:40:43,842 - basicLogger - INFO - Periodic processing has started
2022-11-01 09:40:46,385 - basicLogger - INFO - Number of set grocery events received: 0
2022-11-01 09:40:49,042 - basicLogger - INFO - Number of manual grocery events received: 0
2022-11-01 09:40:49,042 - basicLogger - DEBUG - Number of set grocery orders: 17, Max set grocery orders: 200Number of manual grocery orders: 23, Max manual grocery orders200
2022-11-01 09:40:49,058 - basicLogger - INFO - Processing period has ended.
2022-11-01 09:40:53,848 - basicLogger - INFO - Periodic processing has started
2022-11-01 09:40:56,476 - basicLogger - INFO - Number of set grocery events received: 0
2022-11-01 09:40:59,120 - basicLogger - INFO - Number of manual grocery events received: 0
2022-11-01 09:40:59,120 - basicLogger - DEBUG - Number of set grocery orders: 17, Max set grocery orders: 200Number of manual grocery orders: 23, Max manual grocery orders200
2022-11-01 09:40:59,133 - basicLogger - INFO - Processing period has ended.
2022-11-01 09:41:03,842 - basicLogger - INFO - Periodic processing has started
2022-11-01 09:41:06,412 - basicLogger - INFO - Number of set grocery events received: 0
2022-11-01 09:41:08,967 - basicLogger - INFO - Number of manual grocery events received: 0
2022-11-01 09:41:08,967 - basicLogger - DEBUG - Number of set grocery orders: 17, Max set grocery orders: 200Number of manual grocery orders: 23, Max manual grocery orders200
2022-11-01 09:41:08,975 - basicLogger - INFO - Processing period has ended.
2022-11-01 09:41:13,843 - basicLogger - INFO - Periodic processing has started
2022-11-01 09:41:16,428 - basicLogger - INFO - Number of set grocery events received: 0
2022-11-01 09:41:19,050 - basicLogger - INFO - Number of manual grocery events received: 0
2022-11-01 09:41:19,050 - basicLogger - DEBUG - Number of set grocery orders: 17, Max set grocery orders: 200Number of manual grocery orders: 23, Max manual grocery orders200
2022-11-01 09:41:19,058 - basicLogger - INFO - Processing period has ended.
2022-11-01 09:41:23,851 - basicLogger - INFO - Periodic processing has started
2022-11-01 09:41:26,458 - basicLogger - INFO - Number of set grocery events received: 0
2022-11-01 09:41:29,081 - basicLogger - INFO - Number of manual grocery events received: 0
2022-11-01 09:41:29,081 - basicLogger - DEBUG - Number of set grocery orders: 17, Max set grocery orders: 200Number of manual grocery orders: 23, Max manual grocery orders200
2022-11-01 09:41:29,089 - basicLogger - INFO - Processing period has ended.
2022-11-01 09:41:33,842 - basicLogger - INFO - Periodic processing has started
2022-11-01 09:41:36,519 - basicLogger - INFO - Number of set grocery events received: 0
2022-11-01 09:41:39,138 - basicLogger - INFO - Number of manual grocery events received: 0
2022-11-01 09:41:39,138 - basicLogger - DEBUG - Number of set grocery orders: 17, Max set grocery orders: 200Number of manual grocery orders: 23, Max manual grocery orders200
2022-11-01 09:41:39,149 - basicLogger - INFO - Processing period has ended.
2022-11-01 09:41:43,853 - basicLogger - INFO - Periodic processing has started
2022-11-01 09:41:46,449 - basicLogger - INFO - Number of set grocery events received: 0
2022-11-01 09:41:48,987 - basicLogger - INFO - Number of manual grocery events received: 0
2022-11-01 09:41:48,987 - basicLogger - DEBUG - Number of set grocery orders: 17, Max set grocery orders: 200Number of manual grocery orders: 23, Max manual grocery orders200
2022-11-01 09:41:49,000 - basicLogger - INFO - Processing period has ended.
2022-11-01 09:41:53,848 - basicLogger - INFO - Periodic processing has started
2022-11-01 09:41:56,383 - basicLogger - INFO - Number of set grocery events received: 0
2022-11-01 09:41:58,941 - basicLogger - INFO - Number of manual grocery events received: 0
2022-11-01 09:41:58,941 - basicLogger - DEBUG - Number of set grocery orders: 17, Max set grocery orders: 200Number of manual grocery orders: 23, Max manual grocery orders200
2022-11-01 09:41:58,949 - basicLogger - INFO - Processing period has ended.
2022-11-01 09:42:03,843 - basicLogger - INFO - Periodic processing has started
2022-11-01 09:42:06,363 - basicLogger - INFO - Number of set grocery events received: 0
2022-11-01 09:42:08,948 - basicLogger - INFO - Number of manual grocery events received: 0
2022-11-01 09:42:08,948 - basicLogger - DEBUG - Number of set grocery orders: 17, Max set grocery orders: 200Number of manual grocery orders: 23, Max manual grocery orders200
2022-11-01 09:42:08,958 - basicLogger - INFO - Processing period has ended.
2022-11-01 09:42:13,838 - basicLogger - INFO - Periodic processing has started
2022-11-01 09:42:16,367 - basicLogger - INFO - Number of set grocery events received: 0
2022-11-01 09:42:18,887 - basicLogger - INFO - Number of manual grocery events received: 0
2022-11-01 09:42:18,887 - basicLogger - DEBUG - Number of set grocery orders: 17, Max set grocery orders: 200Number of manual grocery orders: 23, Max manual grocery orders200
2022-11-01 09:42:18,887 - basicLogger - INFO - Processing period has ended.
2022-11-01 09:42:23,845 - basicLogger - INFO - Periodic processing has started
2022-11-01 09:42:26,427 - basicLogger - INFO - Number of set grocery events received: 0
2022-11-01 09:42:29,033 - basicLogger - INFO - Number of manual grocery events received: 0
2022-11-01 09:42:29,033 - basicLogger - DEBUG - Number of set grocery orders: 17, Max set grocery orders: 200Number of manual grocery orders: 23, Max manual grocery orders200
2022-11-01 09:42:29,042 - basicLogger - INFO - Processing period has ended.
2022-11-01 09:42:33,852 - basicLogger - INFO - Periodic processing has started
2022-11-01 09:42:36,425 - basicLogger - INFO - Number of set grocery events received: 0
2022-11-01 09:42:38,951 - basicLogger - INFO - Number of manual grocery events received: 0
2022-11-01 09:42:38,951 - basicLogger - DEBUG - Number of set grocery orders: 17, Max set grocery orders: 200Number of manual grocery orders: 23, Max manual grocery orders200
2022-11-01 09:42:38,958 - basicLogger - INFO - Processing period has ended.
2022-11-01 09:42:43,848 - basicLogger - INFO - Periodic processing has started
2022-11-01 09:42:46,456 - basicLogger - INFO - Number of set grocery events received: 0
2022-11-01 09:42:49,000 - basicLogger - INFO - Number of manual grocery events received: 0
2022-11-01 09:42:49,000 - basicLogger - DEBUG - Number of set grocery orders: 17, Max set grocery orders: 200Number of manual grocery orders: 23, Max manual grocery orders200
2022-11-01 09:42:49,004 - basicLogger - INFO - Processing period has ended.
2022-11-01 09:42:53,850 - basicLogger - INFO - Periodic processing has started
2022-11-01 09:42:56,406 - basicLogger - INFO - Number of set grocery events received: 0
2022-11-01 09:42:58,924 - basicLogger - INFO - Number of manual grocery events received: 0
2022-11-01 09:42:58,924 - basicLogger - DEBUG - Number of set grocery orders: 17, Max set grocery orders: 200Number of manual grocery orders: 23, Max manual grocery orders200
2022-11-01 09:42:58,937 - basicLogger - INFO - Processing period has ended.
2022-11-01 09:43:03,852 - basicLogger - INFO - Periodic processing has started
2022-11-01 09:43:06,402 - basicLogger - INFO - Number of set grocery events received: 0
2022-11-01 09:43:08,967 - basicLogger - INFO - Number of manual grocery events received: 0
2022-11-01 09:43:08,967 - basicLogger - DEBUG - Number of set grocery orders: 17, Max set grocery orders: 200Number of manual grocery orders: 23, Max manual grocery orders200
2022-11-01 09:43:08,975 - basicLogger - INFO - Processing period has ended.
2022-11-01 09:43:13,846 - basicLogger - INFO - Periodic processing has started
2022-11-01 09:43:16,443 - basicLogger - INFO - Number of set grocery events received: 0
2022-11-01 09:43:18,985 - basicLogger - INFO - Number of manual grocery events received: 0
2022-11-01 09:43:18,985 - basicLogger - DEBUG - Number of set grocery orders: 17, Max set grocery orders: 200Number of manual grocery orders: 23, Max manual grocery orders200
2022-11-01 09:43:18,992 - basicLogger - INFO - Processing period has ended.
2022-11-01 09:43:23,848 - basicLogger - INFO - Periodic processing has started
2022-11-01 09:43:26,443 - basicLogger - INFO - Number of set grocery events received: 0
2022-11-01 09:43:29,035 - basicLogger - INFO - Number of manual grocery events received: 0
2022-11-01 09:43:29,035 - basicLogger - DEBUG - Number of set grocery orders: 17, Max set grocery orders: 200Number of manual grocery orders: 23, Max manual grocery orders200
2022-11-01 09:43:29,043 - basicLogger - INFO - Processing period has ended.
2022-11-01 09:43:33,847 - basicLogger - INFO - Periodic processing has started
2022-11-01 09:43:36,560 - basicLogger - INFO - Number of set grocery events received: 0
2022-11-01 09:54:25,277 - basicLogger - INFO - Periodic processing has started
2022-11-01 09:54:30,261 - basicLogger - INFO - Periodic processing has started
2022-11-01 09:54:35,263 - basicLogger - INFO - Periodic processing has started
2022-11-01 09:54:38,027 - basicLogger - INFO - Number of set grocery events received: 0
2022-11-01 09:54:40,691 - basicLogger - INFO - Number of manual grocery events received: 0
2022-11-01 09:54:40,692 - basicLogger - DEBUG - Number of set grocery orders: 17, Max set grocery orders: 200Number of manual grocery orders: 23, Max manual grocery orders200
2022-11-01 09:54:40,695 - basicLogger - INFO - Processing period has ended.
2022-11-01 09:54:45,265 - basicLogger - INFO - Periodic processing has started
2022-11-01 09:54:47,843 - basicLogger - INFO - Number of set grocery events received: 0
2022-11-01 09:54:50,414 - basicLogger - INFO - Number of manual grocery events received: 0
2022-11-01 09:54:50,414 - basicLogger - DEBUG - Number of set grocery orders: 17, Max set grocery orders: 200Number of manual grocery orders: 23, Max manual grocery orders200
2022-11-01 09:54:50,431 - basicLogger - INFO - Processing period has ended.
2022-11-01 09:54:55,257 - basicLogger - INFO - Periodic processing has started
2022-11-01 09:55:00,253 - basicLogger - INFO - Periodic processing has started
2022-11-01 09:55:05,260 - basicLogger - INFO - Periodic processing has started
2022-11-01 09:55:10,257 - basicLogger - INFO - Periodic processing has started
2022-11-01 09:55:15,255 - basicLogger - INFO - Periodic processing has started
2022-11-01 09:55:20,259 - basicLogger - INFO - Periodic processing has started
2022-11-01 09:55:25,255 - basicLogger - INFO - Periodic processing has started
2022-11-01 09:55:30,256 - basicLogger - INFO - Periodic processing has started
2022-11-01 09:55:35,264 - basicLogger - INFO - Periodic processing has started
2022-11-01 09:55:40,265 - basicLogger - INFO - Periodic processing has started
2022-11-01 09:55:45,258 - basicLogger - INFO - Periodic processing has started
2022-11-01 09:55:50,260 - basicLogger - INFO - Periodic processing has started
2022-11-01 09:55:55,257 - basicLogger - INFO - Periodic processing has started
2022-11-01 09:56:00,266 - basicLogger - INFO - Periodic processing has started
2022-11-01 09:56:05,254 - basicLogger - INFO - Periodic processing has started
2022-11-01 09:56:10,262 - basicLogger - INFO - Periodic processing has started
2022-11-01 09:56:15,251 - basicLogger - INFO - Periodic processing has started
2022-11-01 09:56:20,254 - basicLogger - INFO - Periodic processing has started
2022-11-01 09:56:22,804 - basicLogger - DEBUG - Trace ID: 539003052
2022-11-01 09:56:22,804 - basicLogger - DEBUG - Trace ID: 360030884
2022-11-01 09:56:22,804 - basicLogger - DEBUG - Trace ID: 318518459
2022-11-01 09:56:22,804 - basicLogger - DEBUG - Trace ID: 858058961
2022-11-01 09:56:22,804 - basicLogger - DEBUG - Trace ID: 250810016
2022-11-01 09:56:22,804 - basicLogger - INFO - Number of set grocery events received: 5
2022-11-01 09:56:25,404 - basicLogger - DEBUG - Trace ID: 748793124
2022-11-01 09:56:25,404 - basicLogger - DEBUG - Trace ID: 748793124
2022-11-01 09:56:25,404 - basicLogger - DEBUG - Trace ID: 144430883
2022-11-01 09:56:25,404 - basicLogger - DEBUG - Trace ID: 590155857
2022-11-01 09:56:25,404 - basicLogger - DEBUG - Trace ID: 527998628
2022-11-01 09:56:25,404 - basicLogger - INFO - Number of manual grocery events received: 5
2022-11-01 09:56:25,404 - basicLogger - DEBUG - Number of set grocery orders: 22, Max set grocery orders: 200Number of manual grocery orders: 28, Max manual grocery orders200
2022-11-01 09:56:25,416 - basicLogger - INFO - Processing period has ended.
2022-11-01 09:56:30,255 - basicLogger - INFO - Periodic processing has started
2022-11-01 09:56:32,793 - basicLogger - DEBUG - Trace ID: 752853149
2022-11-01 09:56:32,793 - basicLogger - DEBUG - Trace ID: 808835840
2022-11-01 09:56:32,793 - basicLogger - DEBUG - Trace ID: 328987015
2022-11-01 09:56:32,797 - basicLogger - DEBUG - Trace ID: 148171694
2022-11-01 09:56:32,797 - basicLogger - DEBUG - Trace ID: 339117684
2022-11-01 09:56:32,797 - basicLogger - INFO - Number of set grocery events received: 5
2022-11-01 09:56:35,381 - basicLogger - DEBUG - Trace ID: 466238475
2022-11-01 09:56:35,381 - basicLogger - DEBUG - Trace ID: 451138129
2022-11-01 09:56:35,381 - basicLogger - DEBUG - Trace ID: 36569234
2022-11-01 09:56:35,381 - basicLogger - DEBUG - Trace ID: 141915569
2022-11-01 09:56:35,381 - basicLogger - DEBUG - Trace ID: 202738749
2022-11-01 09:56:35,381 - basicLogger - INFO - Number of manual grocery events received: 5
2022-11-01 09:56:35,381 - basicLogger - DEBUG - Number of set grocery orders: 27, Max set grocery orders: 200Number of manual grocery orders: 33, Max manual grocery orders200
2022-11-01 09:56:35,387 - basicLogger - INFO - Processing period has ended.
2022-11-01 09:56:40,257 - basicLogger - INFO - Periodic processing has started
2022-11-01 09:56:42,824 - basicLogger - DEBUG - Trace ID: 271133398
2022-11-01 09:56:42,824 - basicLogger - DEBUG - Trace ID: 955344605
2022-11-01 09:56:42,824 - basicLogger - DEBUG - Trace ID: 860534260
2022-11-01 09:56:42,824 - basicLogger - DEBUG - Trace ID: 473557259
2022-11-01 09:56:42,824 - basicLogger - DEBUG - Trace ID: 153189357
2022-11-01 09:56:42,824 - basicLogger - INFO - Number of set grocery events received: 5
2022-11-01 09:56:45,346 - basicLogger - DEBUG - Trace ID: 42548475
2022-11-01 09:56:45,358 - basicLogger - DEBUG - Trace ID: 755932385
2022-11-01 09:56:45,358 - basicLogger - DEBUG - Trace ID: 604998668
2022-11-01 09:56:45,358 - basicLogger - DEBUG - Trace ID: 285888728
2022-11-01 09:56:45,358 - basicLogger - DEBUG - Trace ID: 253354371
2022-11-01 09:56:45,358 - basicLogger - DEBUG - Trace ID: 492458095
2022-11-01 09:56:45,358 - basicLogger - DEBUG - Trace ID: 698383780
2022-11-01 09:56:45,358 - basicLogger - INFO - Number of manual grocery events received: 7
2022-11-01 09:56:45,358 - basicLogger - DEBUG - Number of set grocery orders: 32, Max set grocery orders: 200Number of manual grocery orders: 40, Max manual grocery orders200
2022-11-01 09:56:45,374 - basicLogger - INFO - Processing period has ended.
2022-11-01 09:56:50,258 - basicLogger - INFO - Periodic processing has started
2022-11-01 09:56:52,811 - basicLogger - DEBUG - Trace ID: 177640717
2022-11-01 09:56:52,811 - basicLogger - DEBUG - Trace ID: 507282254
2022-11-01 09:56:52,811 - basicLogger - DEBUG - Trace ID: 164494158
2022-11-01 09:56:52,811 - basicLogger - DEBUG - Trace ID: 497858247
2022-11-01 09:56:52,811 - basicLogger - DEBUG - Trace ID: 705022890
2022-11-01 09:56:52,811 - basicLogger - INFO - Number of set grocery events received: 5
2022-11-01 09:56:55,411 - basicLogger - DEBUG - Trace ID: 832963519
2022-11-01 09:56:55,411 - basicLogger - DEBUG - Trace ID: 290813103
2022-11-01 09:56:55,411 - basicLogger - DEBUG - Trace ID: 508281869
2022-11-01 09:56:55,411 - basicLogger - DEBUG - Trace ID: 871244908
2022-11-01 09:56:55,411 - basicLogger - DEBUG - Trace ID: 985140354
2022-11-01 09:56:55,411 - basicLogger - DEBUG - Trace ID: 49518131
2022-11-01 09:56:55,411 - basicLogger - DEBUG - Trace ID: 12904342
2022-11-01 09:56:55,411 - basicLogger - INFO - Number of manual grocery events received: 7
2022-11-01 09:56:55,411 - basicLogger - DEBUG - Number of set grocery orders: 37, Max set grocery orders: 200Number of manual grocery orders: 47, Max manual grocery orders200
2022-11-01 09:56:55,427 - basicLogger - INFO - Processing period has ended.
2022-11-01 09:57:00,267 - basicLogger - INFO - Periodic processing has started
2022-11-01 09:57:02,885 - basicLogger - INFO - Number of set grocery events received: 0
2022-11-01 09:57:05,481 - basicLogger - INFO - Number of manual grocery events received: 0
2022-11-01 09:57:05,489 - basicLogger - DEBUG - Number of set grocery orders: 37, Max set grocery orders: 200Number of manual grocery orders: 47, Max manual grocery orders200
2022-11-01 09:57:05,497 - basicLogger - INFO - Processing period has ended.
2022-11-01 09:57:10,264 - basicLogger - INFO - Periodic processing has started
2022-11-01 09:57:12,850 - basicLogger - INFO - Number of set grocery events received: 0
2022-11-01 09:57:15,390 - basicLogger - INFO - Number of manual grocery events received: 0
2022-11-01 09:57:15,391 - basicLogger - DEBUG - Number of set grocery orders: 37, Max set grocery orders: 200Number of manual grocery orders: 47, Max manual grocery orders200
2022-11-01 09:57:15,401 - basicLogger - INFO - Processing period has ended.
2022-11-01 09:57:20,258 - basicLogger - INFO - Periodic processing has started
2022-11-01 09:57:22,815 - basicLogger - INFO - Number of set grocery events received: 0
2022-11-01 09:57:25,362 - basicLogger - INFO - Number of manual grocery events received: 0
2022-11-01 09:57:25,377 - basicLogger - DEBUG - Number of set grocery orders: 37, Max set grocery orders: 200Number of manual grocery orders: 47, Max manual grocery orders200
2022-11-01 09:57:25,377 - basicLogger - INFO - Processing period has ended.
2022-11-01 09:57:30,251 - basicLogger - INFO - Periodic processing has started
2022-11-01 09:57:32,891 - basicLogger - INFO - Number of set grocery events received: 0
2022-11-01 09:57:35,517 - basicLogger - INFO - Number of manual grocery events received: 0
2022-11-01 09:57:35,517 - basicLogger - DEBUG - Number of set grocery orders: 37, Max set grocery orders: 200Number of manual grocery orders: 47, Max manual grocery orders200
2022-11-01 09:57:35,522 - basicLogger - INFO - Processing period has ended.
2022-11-01 09:57:40,265 - basicLogger - INFO - Periodic processing has started
2022-11-01 09:57:42,808 - basicLogger - INFO - Number of set grocery events received: 0
2022-11-01 09:57:45,344 - basicLogger - INFO - Number of manual grocery events received: 0
2022-11-01 09:57:45,344 - basicLogger - DEBUG - Number of set grocery orders: 37, Max set grocery orders: 200Number of manual grocery orders: 47, Max manual grocery orders200
2022-11-01 09:57:45,359 - basicLogger - INFO - Processing period has ended.
2022-11-01 09:57:50,255 - basicLogger - INFO - Periodic processing has started
2022-11-07 15:47:09,609 - basicLogger - INFO - Periodic processing has started
